﻿# Wavefront OBJ file automatically generated by Tiled2Unity

# Vertices (Count = 1072)
v 0 -0.319999992847443 0
v -0.319999992847443 -0.319999992847443 0
v -0.319999992847443 0 0
v 0 0 0
v -0.639999985694885 -0.319999992847443 0
v -0.639999985694885 0 0
v -0.959999978542328 -0.319999992847443 0
v -0.959999978542328 0 0
v -1.27999997138977 -0.319999992847443 0
v -1.27999997138977 0 0
v -1.59999990463257 -0.319999992847443 0
v -1.59999990463257 0 0
v -1.91999995708466 -0.319999992847443 0
v -1.91999995708466 0 0
v -2.24000000953674 -0.319999992847443 0
v -2.24000000953674 0 0
v -2.55999994277954 -0.319999992847443 0
v -2.55999994277954 0 0
v -2.87999987602234 -0.319999992847443 0
v -2.87999987602234 0 0
v -3.19999980926514 -0.319999992847443 0
v -3.19999980926514 0 0
v -3.51999998092651 -0.319999992847443 0
v -3.51999998092651 0 0
v -3.83999991416931 -0.319999992847443 0
v -3.83999991416931 0 0
v -4.15999984741211 -0.319999992847443 0
v -4.15999984741211 0 0
v -4.48000001907349 -0.319999992847443 0
v -4.48000001907349 0 0
v -4.79999971389771 -0.319999992847443 0
v -4.79999971389771 0 0
v -5.11999988555908 -0.319999992847443 0
v -5.11999988555908 0 0
v -5.44000005722046 -0.319999992847443 0
v -5.44000005722046 0 0
v -5.75999975204468 -0.319999992847443 0
v -5.75999975204468 0 0
v -6.07999992370605 -0.319999992847443 0
v -6.07999992370605 0 0
v -6.39999961853027 -0.319999992847443 0
v -6.39999961853027 0 0
v -6.71999979019165 -0.319999992847443 0
v -6.71999979019165 0 0
v -7.03999996185303 -0.319999992847443 0
v -7.03999996185303 0 0
v -7.35999965667725 -0.319999992847443 0
v -7.35999965667725 0 0
v -7.67999982833862 -0.319999992847443 0
v -7.67999982833862 0 0
v -8 -0.319999992847443 0
v -8 0 0
v -8.31999969482422 -0.319999992847443 0
v -8.31999969482422 0 0
v -8.63999938964844 -0.319999992847443 0
v -8.63999938964844 0 0
v -8.96000003814697 -0.319999992847443 0
v -8.96000003814697 0 0
v -9.27999973297119 -0.319999992847443 0
v -9.27999973297119 0 0
v -9.59999942779541 -0.319999992847443 0
v -9.59999942779541 0 0
v -9.92000007629395 -0.319999992847443 0
v -9.92000007629395 0 0
v -10.2399997711182 -0.319999992847443 0
v -10.2399997711182 0 0
v -10.5599994659424 -0.319999992847443 0
v -10.5599994659424 0 0
v -10.8800001144409 -0.319999992847443 0
v -10.8800001144409 0 0
v -11.1999998092651 -0.319999992847443 0
v -11.1999998092651 0 0
v -11.5199995040894 -0.319999992847443 0
v -11.5199995040894 0 0
v -11.8400001525879 -0.319999992847443 0
v -11.8400001525879 0 0
v -12.1599998474121 -0.319999992847443 0
v -12.1599998474121 0 0
v -12.4799995422363 -0.319999992847443 0
v -12.4799995422363 0 0
v -12.7999992370605 -0.319999992847443 0
v -12.7999992370605 0 0
v -13.1199998855591 -0.319999992847443 0
v -13.1199998855591 0 0
v -13.4399995803833 -0.319999992847443 0
v -13.4399995803833 0 0
v -13.7599992752075 -0.319999992847443 0
v -13.7599992752075 0 0
v -14.0799999237061 -0.319999992847443 0
v -14.0799999237061 0 0
v -14.3999996185303 -0.319999992847443 0
v -14.3999996185303 0 0
v -14.7199993133545 -0.319999992847443 0
v -14.7199993133545 0 0
v -15.039999961853 -0.319999992847443 0
v -15.039999961853 0 0
v -15.3599996566772 -0.319999992847443 0
v -15.3599996566772 0 0
v -15.6799993515015 -0.319999992847443 0
v -15.6799993515015 0 0
v -16 -0.319999992847443 0
v -16 0 0
v -16.3199996948242 -0.319999992847443 0
v -16.3199996948242 0 0
v -16.6399993896484 -0.319999992847443 0
v -16.6399993896484 0 0
v -16.9599990844727 -0.319999992847443 0
v -16.9599990844727 0 0
v -17.2799987792969 -0.319999992847443 0
v -17.2799987792969 0 0
v -17.6000003814697 -0.319999992847443 0
v -17.6000003814697 0 0
v -17.9200000762939 -0.319999992847443 0
v -17.9200000762939 0 0
v 0 -0.639999985694885 0
v -0.319999992847443 -0.639999985694885 0
v -0.639999985694885 -0.639999985694885 0
v -0.959999978542328 -0.639999985694885 0
v -1.27999997138977 -0.639999985694885 0
v -1.59999990463257 -0.639999985694885 0
v -1.91999995708466 -0.639999985694885 0
v -2.24000000953674 -0.639999985694885 0
v -2.55999994277954 -0.639999985694885 0
v -2.87999987602234 -0.639999985694885 0
v -3.19999980926514 -0.639999985694885 0
v -3.51999998092651 -0.639999985694885 0
v -3.83999991416931 -0.639999985694885 0
v -4.15999984741211 -0.639999985694885 0
v -4.48000001907349 -0.639999985694885 0
v -4.79999971389771 -0.639999985694885 0
v -5.11999988555908 -0.639999985694885 0
v -5.44000005722046 -0.639999985694885 0
v -5.75999975204468 -0.639999985694885 0
v -6.07999992370605 -0.639999985694885 0
v -6.39999961853027 -0.639999985694885 0
v -6.71999979019165 -0.639999985694885 0
v -7.03999996185303 -0.639999985694885 0
v -7.35999965667725 -0.639999985694885 0
v -7.67999982833862 -0.639999985694885 0
v -8 -0.639999985694885 0
v -8.31999969482422 -0.639999985694885 0
v -8.63999938964844 -0.639999985694885 0
v -8.96000003814697 -0.639999985694885 0
v -9.27999973297119 -0.639999985694885 0
v -9.59999942779541 -0.639999985694885 0
v -9.92000007629395 -0.639999985694885 0
v -10.2399997711182 -0.639999985694885 0
v -10.5599994659424 -0.639999985694885 0
v -10.8800001144409 -0.639999985694885 0
v -11.1999998092651 -0.639999985694885 0
v -11.5199995040894 -0.639999985694885 0
v -11.8400001525879 -0.639999985694885 0
v -12.1599998474121 -0.639999985694885 0
v -12.4799995422363 -0.639999985694885 0
v -12.7999992370605 -0.639999985694885 0
v -13.1199998855591 -0.639999985694885 0
v -13.4399995803833 -0.639999985694885 0
v -13.7599992752075 -0.639999985694885 0
v -14.0799999237061 -0.639999985694885 0
v -14.3999996185303 -0.639999985694885 0
v -14.7199993133545 -0.639999985694885 0
v -15.039999961853 -0.639999985694885 0
v -15.3599996566772 -0.639999985694885 0
v -15.6799993515015 -0.639999985694885 0
v -16 -0.639999985694885 0
v -16.3199996948242 -0.639999985694885 0
v -16.6399993896484 -0.639999985694885 0
v -16.9599990844727 -0.639999985694885 0
v -17.2799987792969 -0.639999985694885 0
v -17.6000003814697 -0.639999985694885 0
v -17.9200000762939 -0.639999985694885 0
v 0 -0.959999978542328 0
v -0.319999992847443 -0.959999978542328 0
v -0.639999985694885 -0.959999978542328 0
v -0.959999978542328 -0.959999978542328 0
v -1.27999997138977 -0.959999978542328 0
v -1.59999990463257 -0.959999978542328 0
v -1.91999995708466 -0.959999978542328 0
v -2.24000000953674 -0.959999978542328 0
v -2.55999994277954 -0.959999978542328 0
v -2.87999987602234 -0.959999978542328 0
v -3.19999980926514 -0.959999978542328 0
v -3.51999998092651 -0.959999978542328 0
v -3.83999991416931 -0.959999978542328 0
v -4.15999984741211 -0.959999978542328 0
v -4.48000001907349 -0.959999978542328 0
v -4.79999971389771 -0.959999978542328 0
v -5.11999988555908 -0.959999978542328 0
v -5.44000005722046 -0.959999978542328 0
v -5.75999975204468 -0.959999978542328 0
v -6.07999992370605 -0.959999978542328 0
v -6.39999961853027 -0.959999978542328 0
v -6.71999979019165 -0.959999978542328 0
v -7.03999996185303 -0.959999978542328 0
v -7.35999965667725 -0.959999978542328 0
v -7.67999982833862 -0.959999978542328 0
v -8 -0.959999978542328 0
v -8.31999969482422 -0.959999978542328 0
v -8.63999938964844 -0.959999978542328 0
v -8.96000003814697 -0.959999978542328 0
v -9.27999973297119 -0.959999978542328 0
v -9.59999942779541 -0.959999978542328 0
v -9.92000007629395 -0.959999978542328 0
v -10.2399997711182 -0.959999978542328 0
v -10.5599994659424 -0.959999978542328 0
v -10.8800001144409 -0.959999978542328 0
v -11.1999998092651 -0.959999978542328 0
v -11.5199995040894 -0.959999978542328 0
v -11.8400001525879 -0.959999978542328 0
v -12.1599998474121 -0.959999978542328 0
v -12.4799995422363 -0.959999978542328 0
v -12.7999992370605 -0.959999978542328 0
v -13.1199998855591 -0.959999978542328 0
v -13.4399995803833 -0.959999978542328 0
v -13.7599992752075 -0.959999978542328 0
v -14.0799999237061 -0.959999978542328 0
v -14.3999996185303 -0.959999978542328 0
v -14.7199993133545 -0.959999978542328 0
v -15.039999961853 -0.959999978542328 0
v -15.3599996566772 -0.959999978542328 0
v -15.6799993515015 -0.959999978542328 0
v -16 -0.959999978542328 0
v -16.3199996948242 -0.959999978542328 0
v -16.6399993896484 -0.959999978542328 0
v -16.9599990844727 -0.959999978542328 0
v -17.2799987792969 -0.959999978542328 0
v -17.6000003814697 -0.959999978542328 0
v -17.9200000762939 -0.959999978542328 0
v 0 -1.27999997138977 0
v -0.319999992847443 -1.27999997138977 0
v -0.639999985694885 -1.27999997138977 0
v -0.959999978542328 -1.27999997138977 0
v -1.27999997138977 -1.27999997138977 0
v -1.59999990463257 -1.27999997138977 0
v -1.91999995708466 -1.27999997138977 0
v -2.24000000953674 -1.27999997138977 0
v -2.55999994277954 -1.27999997138977 0
v -2.87999987602234 -1.27999997138977 0
v -3.19999980926514 -1.27999997138977 0
v -3.51999998092651 -1.27999997138977 0
v -3.83999991416931 -1.27999997138977 0
v -4.15999984741211 -1.27999997138977 0
v -4.48000001907349 -1.27999997138977 0
v -4.79999971389771 -1.27999997138977 0
v -5.11999988555908 -1.27999997138977 0
v -5.44000005722046 -1.27999997138977 0
v -5.75999975204468 -1.27999997138977 0
v -6.07999992370605 -1.27999997138977 0
v -6.39999961853027 -1.27999997138977 0
v -6.71999979019165 -1.27999997138977 0
v -7.03999996185303 -1.27999997138977 0
v -7.35999965667725 -1.27999997138977 0
v -7.67999982833862 -1.27999997138977 0
v -8 -1.27999997138977 0
v -8.31999969482422 -1.27999997138977 0
v -8.63999938964844 -1.27999997138977 0
v -8.96000003814697 -1.27999997138977 0
v -9.27999973297119 -1.27999997138977 0
v -9.59999942779541 -1.27999997138977 0
v -9.92000007629395 -1.27999997138977 0
v -10.2399997711182 -1.27999997138977 0
v -10.5599994659424 -1.27999997138977 0
v -10.8800001144409 -1.27999997138977 0
v -11.1999998092651 -1.27999997138977 0
v -11.5199995040894 -1.27999997138977 0
v -11.8400001525879 -1.27999997138977 0
v -12.1599998474121 -1.27999997138977 0
v -12.4799995422363 -1.27999997138977 0
v -12.7999992370605 -1.27999997138977 0
v -13.1199998855591 -1.27999997138977 0
v -13.4399995803833 -1.27999997138977 0
v -13.7599992752075 -1.27999997138977 0
v -14.0799999237061 -1.27999997138977 0
v -14.3999996185303 -1.27999997138977 0
v -14.7199993133545 -1.27999997138977 0
v -15.039999961853 -1.27999997138977 0
v -15.3599996566772 -1.27999997138977 0
v -15.6799993515015 -1.27999997138977 0
v -16 -1.27999997138977 0
v -16.3199996948242 -1.27999997138977 0
v -16.6399993896484 -1.27999997138977 0
v -16.9599990844727 -1.27999997138977 0
v -17.2799987792969 -1.27999997138977 0
v -17.6000003814697 -1.27999997138977 0
v -17.9200000762939 -1.27999997138977 0
v -18.2399997711182 -1.27999997138977 0
v -18.2399997711182 -0.959999978542328 0
v 0 -1.59999990463257 0
v -0.319999992847443 -1.59999990463257 0
v -0.639999985694885 -1.59999990463257 0
v -0.959999978542328 -1.59999990463257 0
v -1.27999997138977 -1.59999990463257 0
v -1.59999990463257 -1.59999990463257 0
v -1.91999995708466 -1.59999990463257 0
v -2.24000000953674 -1.59999990463257 0
v -2.55999994277954 -1.59999990463257 0
v -2.87999987602234 -1.59999990463257 0
v -3.19999980926514 -1.59999990463257 0
v -3.51999998092651 -1.59999990463257 0
v -3.83999991416931 -1.59999990463257 0
v -4.15999984741211 -1.59999990463257 0
v -4.48000001907349 -1.59999990463257 0
v -4.79999971389771 -1.59999990463257 0
v -5.11999988555908 -1.59999990463257 0
v -5.44000005722046 -1.59999990463257 0
v -5.75999975204468 -1.59999990463257 0
v -6.07999992370605 -1.59999990463257 0
v -6.39999961853027 -1.59999990463257 0
v -6.71999979019165 -1.59999990463257 0
v -7.03999996185303 -1.59999990463257 0
v -7.35999965667725 -1.59999990463257 0
v -7.67999982833862 -1.59999990463257 0
v -8 -1.59999990463257 0
v -8.31999969482422 -1.59999990463257 0
v -8.63999938964844 -1.59999990463257 0
v -8.96000003814697 -1.59999990463257 0
v -9.27999973297119 -1.59999990463257 0
v -9.59999942779541 -1.59999990463257 0
v -9.92000007629395 -1.59999990463257 0
v -10.2399997711182 -1.59999990463257 0
v -10.5599994659424 -1.59999990463257 0
v -10.8800001144409 -1.59999990463257 0
v -11.1999998092651 -1.59999990463257 0
v -11.5199995040894 -1.59999990463257 0
v -11.8400001525879 -1.59999990463257 0
v -12.1599998474121 -1.59999990463257 0
v -12.4799995422363 -1.59999990463257 0
v -12.7999992370605 -1.59999990463257 0
v -13.1199998855591 -1.59999990463257 0
v -13.4399995803833 -1.59999990463257 0
v -13.7599992752075 -1.59999990463257 0
v -14.0799999237061 -1.59999990463257 0
v -14.3999996185303 -1.59999990463257 0
v -14.7199993133545 -1.59999990463257 0
v -15.039999961853 -1.59999990463257 0
v -15.3599996566772 -1.59999990463257 0
v -15.6799993515015 -1.59999990463257 0
v -16 -1.59999990463257 0
v -16.3199996948242 -1.59999990463257 0
v -16.6399993896484 -1.59999990463257 0
v -16.9599990844727 -1.59999990463257 0
v -17.2799987792969 -1.59999990463257 0
v -17.6000003814697 -1.59999990463257 0
v -17.9200000762939 -1.59999990463257 0
v -18.2399997711182 -1.59999990463257 0
v 0 -1.91999995708466 0
v -0.319999992847443 -1.91999995708466 0
v -0.449999988079071 -1.91999995708466 0
v -0.769999980926514 -1.91999995708466 0
v -0.769999980926514 -1.59999990463257 0
v -0.449999988079071 -1.59999990463257 0
v -1.0900000333786 -1.91999995708466 0
v -1.0900000333786 -1.59999990463257 0
v -1.4099999666214 -1.91999995708466 0
v -1.4099999666214 -1.59999990463257 0
v -1.73000001907349 -1.91999995708466 0
v -1.73000001907349 -1.59999990463257 0
v -2.04999995231628 -1.91999995708466 0
v -2.04999995231628 -1.59999990463257 0
v -2.36999988555908 -1.91999995708466 0
v -2.36999988555908 -1.59999990463257 0
v -2.69000005722046 -1.91999995708466 0
v -2.69000005722046 -1.59999990463257 0
v -3.00999999046326 -1.91999995708466 0
v -3.00999999046326 -1.59999990463257 0
v -3.32999992370605 -1.91999995708466 0
v -3.32999992370605 -1.59999990463257 0
v -3.64999985694885 -1.91999995708466 0
v -3.64999985694885 -1.59999990463257 0
v -3.97000002861023 -1.91999995708466 0
v -3.97000002861023 -1.59999990463257 0
v -4.28999996185303 -1.91999995708466 0
v -4.28999996185303 -1.59999990463257 0
v -4.6100001335144 -1.91999995708466 0
v -4.6100001335144 -1.59999990463257 0
v -4.92999982833862 -1.91999995708466 0
v -4.92999982833862 -1.59999990463257 0
v -5.25 -1.91999995708466 0
v -5.25 -1.59999990463257 0
v -5.56999969482422 -1.91999995708466 0
v -5.56999969482422 -1.59999990463257 0
v -5.8899998664856 -1.91999995708466 0
v -5.8899998664856 -1.59999990463257 0
v -6.21000003814697 -1.91999995708466 0
v -6.21000003814697 -1.59999990463257 0
v -6.52999973297119 -1.91999995708466 0
v -6.52999973297119 -1.59999990463257 0
v -6.84999990463257 -1.91999995708466 0
v -6.84999990463257 -1.59999990463257 0
v -7.17000007629395 -1.91999995708466 0
v -7.17000007629395 -1.59999990463257 0
v -7.48999977111816 -1.91999995708466 0
v -7.48999977111816 -1.59999990463257 0
v -7.80999994277954 -1.91999995708466 0
v -7.80999994277954 -1.59999990463257 0
v -8.13000011444092 -1.91999995708466 0
v -8.13000011444092 -1.59999990463257 0
v -8.44999980926514 -1.91999995708466 0
v -8.44999980926514 -1.59999990463257 0
v -8.76999950408936 -1.91999995708466 0
v -8.76999950408936 -1.59999990463257 0
v -9.09000015258789 -1.91999995708466 0
v -9.09000015258789 -1.59999990463257 0
v -9.40999984741211 -1.91999995708466 0
v -9.40999984741211 -1.59999990463257 0
v -9.72999954223633 -1.91999995708466 0
v -9.72999954223633 -1.59999990463257 0
v -10.0500001907349 -1.91999995708466 0
v -10.0500001907349 -1.59999990463257 0
v -10.3699998855591 -1.91999995708466 0
v -10.3699998855591 -1.59999990463257 0
v -10.6899995803833 -1.91999995708466 0
v -10.6899995803833 -1.59999990463257 0
v -11.0100002288818 -1.91999995708466 0
v -11.0100002288818 -1.59999990463257 0
v -11.3299999237061 -1.91999995708466 0
v -11.3299999237061 -1.59999990463257 0
v -11.6499996185303 -1.91999995708466 0
v -11.6499996185303 -1.59999990463257 0
v -11.9699993133545 -1.91999995708466 0
v -11.9699993133545 -1.59999990463257 0
v -12.289999961853 -1.91999995708466 0
v -12.289999961853 -1.59999990463257 0
v -12.6099996566772 -1.91999995708466 0
v -12.6099996566772 -1.59999990463257 0
v -12.9299993515015 -1.91999995708466 0
v -12.9299993515015 -1.59999990463257 0
v -13.25 -1.91999995708466 0
v -13.25 -1.59999990463257 0
v -13.5699996948242 -1.91999995708466 0
v -13.5699996948242 -1.59999990463257 0
v -13.8899993896484 -1.91999995708466 0
v -13.8899993896484 -1.59999990463257 0
v -14.210000038147 -1.91999995708466 0
v -14.210000038147 -1.59999990463257 0
v -14.5299997329712 -1.91999995708466 0
v -14.5299997329712 -1.59999990463257 0
v -14.8499994277954 -1.91999995708466 0
v -14.8499994277954 -1.59999990463257 0
v -15.1700000762939 -1.91999995708466 0
v -15.1700000762939 -1.59999990463257 0
v -15.039999961853 -1.91999995708466 0
v -15.3599996566772 -1.91999995708466 0
v -15.6799993515015 -1.91999995708466 0
v -16 -1.91999995708466 0
v -16.3199996948242 -1.91999995708466 0
v -16.6399993896484 -1.91999995708466 0
v -16.9599990844727 -1.91999995708466 0
v -17.2799987792969 -1.91999995708466 0
v -17.6000003814697 -1.91999995708466 0
v -17.9200000762939 -1.91999995708466 0
v -18.2399997711182 -1.91999995708466 0
v 0 -2.24000000953674 0
v -0.319999992847443 -2.24000000953674 0
v -0.449999988079071 -2.24000000953674 0
v -0.769999980926514 -2.24000000953674 0
v -1.0900000333786 -2.24000000953674 0
v -1.4099999666214 -2.24000000953674 0
v -1.73000001907349 -2.24000000953674 0
v -2.04999995231628 -2.24000000953674 0
v -2.36999988555908 -2.24000000953674 0
v -2.69000005722046 -2.24000000953674 0
v -3.00999999046326 -2.24000000953674 0
v -3.32999992370605 -2.24000000953674 0
v -3.64999985694885 -2.24000000953674 0
v -3.97000002861023 -2.24000000953674 0
v -4.28999996185303 -2.24000000953674 0
v -4.6100001335144 -2.24000000953674 0
v -4.92999982833862 -2.24000000953674 0
v -5.25 -2.24000000953674 0
v -5.56999969482422 -2.24000000953674 0
v -5.8899998664856 -2.24000000953674 0
v -6.21000003814697 -2.24000000953674 0
v -6.52999973297119 -2.24000000953674 0
v -6.84999990463257 -2.24000000953674 0
v -7.17000007629395 -2.24000000953674 0
v -7.48999977111816 -2.24000000953674 0
v -7.80999994277954 -2.24000000953674 0
v -8.13000011444092 -2.24000000953674 0
v -8.44999980926514 -2.24000000953674 0
v -8.76999950408936 -2.24000000953674 0
v -9.09000015258789 -2.24000000953674 0
v -9.40999984741211 -2.24000000953674 0
v -9.72999954223633 -2.24000000953674 0
v -10.0500001907349 -2.24000000953674 0
v -10.3699998855591 -2.24000000953674 0
v -10.6899995803833 -2.24000000953674 0
v -11.0100002288818 -2.24000000953674 0
v -11.3299999237061 -2.24000000953674 0
v -11.6499996185303 -2.24000000953674 0
v -11.9699993133545 -2.24000000953674 0
v -12.289999961853 -2.24000000953674 0
v -12.6099996566772 -2.24000000953674 0
v -12.9299993515015 -2.24000000953674 0
v -13.25 -2.24000000953674 0
v -13.5699996948242 -2.24000000953674 0
v -13.8899993896484 -2.24000000953674 0
v -14.210000038147 -2.24000000953674 0
v -14.5299997329712 -2.24000000953674 0
v -14.8499994277954 -2.24000000953674 0
v -15.1700000762939 -2.24000000953674 0
v -15.039999961853 -2.24000000953674 0
v -15.3599996566772 -2.24000000953674 0
v -15.6799993515015 -2.24000000953674 0
v -16 -2.24000000953674 0
v -16.3199996948242 -2.24000000953674 0
v -16.6399993896484 -2.24000000953674 0
v -16.9599990844727 -2.24000000953674 0
v -17.2799987792969 -2.24000000953674 0
v -17.6000003814697 -2.24000000953674 0
v -17.9200000762939 -2.24000000953674 0
v -18.2399997711182 -2.24000000953674 0
v 0 -2.55999994277954 0
v -0.319999992847443 -2.55999994277954 0
v -0.449999988079071 -2.55999994277954 0
v -0.769999980926514 -2.55999994277954 0
v -1.0900000333786 -2.55999994277954 0
v -1.4099999666214 -2.55999994277954 0
v -1.73000001907349 -2.55999994277954 0
v -2.04999995231628 -2.55999994277954 0
v -2.36999988555908 -2.55999994277954 0
v -2.69000005722046 -2.55999994277954 0
v -3.00999999046326 -2.55999994277954 0
v -3.32999992370605 -2.55999994277954 0
v -3.64999985694885 -2.55999994277954 0
v -3.97000002861023 -2.55999994277954 0
v -4.28999996185303 -2.55999994277954 0
v -4.6100001335144 -2.55999994277954 0
v -4.92999982833862 -2.55999994277954 0
v -5.25 -2.55999994277954 0
v -5.56999969482422 -2.55999994277954 0
v -5.8899998664856 -2.55999994277954 0
v -6.21000003814697 -2.55999994277954 0
v -6.52999973297119 -2.55999994277954 0
v -6.84999990463257 -2.55999994277954 0
v -7.17000007629395 -2.55999994277954 0
v -7.48999977111816 -2.55999994277954 0
v -7.80999994277954 -2.55999994277954 0
v -8.13000011444092 -2.55999994277954 0
v -8.44999980926514 -2.55999994277954 0
v -8.76999950408936 -2.55999994277954 0
v -9.09000015258789 -2.55999994277954 0
v -9.40999984741211 -2.55999994277954 0
v -9.72999954223633 -2.55999994277954 0
v -10.0500001907349 -2.55999994277954 0
v -10.3699998855591 -2.55999994277954 0
v -10.6899995803833 -2.55999994277954 0
v -11.0100002288818 -2.55999994277954 0
v -11.3299999237061 -2.55999994277954 0
v -11.6499996185303 -2.55999994277954 0
v -11.9699993133545 -2.55999994277954 0
v -12.289999961853 -2.55999994277954 0
v -12.6099996566772 -2.55999994277954 0
v -12.9299993515015 -2.55999994277954 0
v -13.25 -2.55999994277954 0
v -13.5699996948242 -2.55999994277954 0
v -13.8899993896484 -2.55999994277954 0
v -14.210000038147 -2.55999994277954 0
v -14.5299997329712 -2.55999994277954 0
v -14.8499994277954 -2.55999994277954 0
v -15.1700000762939 -2.55999994277954 0
v -15.039999961853 -2.55999994277954 0
v -15.3599996566772 -2.55999994277954 0
v -15.6799993515015 -2.55999994277954 0
v -16 -2.55999994277954 0
v -16.3199996948242 -2.55999994277954 0
v -16.6399993896484 -2.55999994277954 0
v -16.9599990844727 -2.55999994277954 0
v -17.2799987792969 -2.55999994277954 0
v -17.6000003814697 -2.55999994277954 0
v -17.9200000762939 -2.55999994277954 0
v -18.2399997711182 -2.55999994277954 0
v 0 -2.87999987602234 0
v -0.319999992847443 -2.87999987602234 0
v -0.449999988079071 -2.87999987602234 0
v -0.769999980926514 -2.87999987602234 0
v -1.0900000333786 -2.87999987602234 0
v -1.4099999666214 -2.87999987602234 0
v -1.73000001907349 -2.87999987602234 0
v -2.04999995231628 -2.87999987602234 0
v -2.36999988555908 -2.87999987602234 0
v -2.69000005722046 -2.87999987602234 0
v -3.00999999046326 -2.87999987602234 0
v -3.32999992370605 -2.87999987602234 0
v -3.64999985694885 -2.87999987602234 0
v -3.97000002861023 -2.87999987602234 0
v -4.28999996185303 -2.87999987602234 0
v -4.6100001335144 -2.87999987602234 0
v -4.92999982833862 -2.87999987602234 0
v -5.25 -2.87999987602234 0
v -5.56999969482422 -2.87999987602234 0
v -5.8899998664856 -2.87999987602234 0
v -6.21000003814697 -2.87999987602234 0
v -6.52999973297119 -2.87999987602234 0
v -6.84999990463257 -2.87999987602234 0
v -7.17000007629395 -2.87999987602234 0
v -7.48999977111816 -2.87999987602234 0
v -7.80999994277954 -2.87999987602234 0
v -8.13000011444092 -2.87999987602234 0
v -8.44999980926514 -2.87999987602234 0
v -8.76999950408936 -2.87999987602234 0
v -9.09000015258789 -2.87999987602234 0
v -9.40999984741211 -2.87999987602234 0
v -9.72999954223633 -2.87999987602234 0
v -10.0500001907349 -2.87999987602234 0
v -10.3699998855591 -2.87999987602234 0
v -10.6899995803833 -2.87999987602234 0
v -11.0100002288818 -2.87999987602234 0
v -11.3299999237061 -2.87999987602234 0
v -11.6499996185303 -2.87999987602234 0
v -11.9699993133545 -2.87999987602234 0
v -12.289999961853 -2.87999987602234 0
v -12.6099996566772 -2.87999987602234 0
v -12.9299993515015 -2.87999987602234 0
v -13.25 -2.87999987602234 0
v -13.5699996948242 -2.87999987602234 0
v -13.8899993896484 -2.87999987602234 0
v -14.210000038147 -2.87999987602234 0
v -14.5299997329712 -2.87999987602234 0
v -14.8499994277954 -2.87999987602234 0
v -15.1700000762939 -2.87999987602234 0
v -15.039999961853 -2.87999987602234 0
v -15.3599996566772 -2.87999987602234 0
v -15.6799993515015 -2.87999987602234 0
v -16 -2.87999987602234 0
v -16.3199996948242 -2.87999987602234 0
v -16.6399993896484 -2.87999987602234 0
v -16.9599990844727 -2.87999987602234 0
v -17.2799987792969 -2.87999987602234 0
v -17.6000003814697 -2.87999987602234 0
v -17.9200000762939 -2.87999987602234 0
v -18.2399997711182 -2.87999987602234 0
v 0 -3.19999980926514 0
v -0.319999992847443 -3.19999980926514 0
v -0.449999988079071 -3.19999980926514 0
v -0.769999980926514 -3.19999980926514 0
v -1.0900000333786 -3.19999980926514 0
v -1.4099999666214 -3.19999980926514 0
v -1.73000001907349 -3.19999980926514 0
v -2.04999995231628 -3.19999980926514 0
v -2.36999988555908 -3.19999980926514 0
v -2.69000005722046 -3.19999980926514 0
v -3.00999999046326 -3.19999980926514 0
v -3.32999992370605 -3.19999980926514 0
v -3.64999985694885 -3.19999980926514 0
v -3.97000002861023 -3.19999980926514 0
v -4.28999996185303 -3.19999980926514 0
v -4.6100001335144 -3.19999980926514 0
v -4.92999982833862 -3.19999980926514 0
v -5.25 -3.19999980926514 0
v -5.56999969482422 -3.19999980926514 0
v -5.8899998664856 -3.19999980926514 0
v -6.21000003814697 -3.19999980926514 0
v -6.52999973297119 -3.19999980926514 0
v -6.84999990463257 -3.19999980926514 0
v -7.17000007629395 -3.19999980926514 0
v -7.48999977111816 -3.19999980926514 0
v -7.80999994277954 -3.19999980926514 0
v -8.13000011444092 -3.19999980926514 0
v -8.44999980926514 -3.19999980926514 0
v -8.76999950408936 -3.19999980926514 0
v -9.09000015258789 -3.19999980926514 0
v -9.40999984741211 -3.19999980926514 0
v -9.72999954223633 -3.19999980926514 0
v -10.0500001907349 -3.19999980926514 0
v -10.3699998855591 -3.19999980926514 0
v -10.6899995803833 -3.19999980926514 0
v -11.0100002288818 -3.19999980926514 0
v -11.3299999237061 -3.19999980926514 0
v -11.6499996185303 -3.19999980926514 0
v -11.9699993133545 -3.19999980926514 0
v -12.289999961853 -3.19999980926514 0
v -12.6099996566772 -3.19999980926514 0
v -12.9299993515015 -3.19999980926514 0
v -13.25 -3.19999980926514 0
v -13.5699996948242 -3.19999980926514 0
v -13.8899993896484 -3.19999980926514 0
v -14.210000038147 -3.19999980926514 0
v -14.5299997329712 -3.19999980926514 0
v -14.8499994277954 -3.19999980926514 0
v -15.1700000762939 -3.19999980926514 0
v -15.039999961853 -3.19999980926514 0
v -15.3599996566772 -3.19999980926514 0
v -15.6799993515015 -3.19999980926514 0
v -16 -3.19999980926514 0
v -16.3199996948242 -3.19999980926514 0
v -16.6399993896484 -3.19999980926514 0
v -16.9599990844727 -3.19999980926514 0
v -17.2799987792969 -3.19999980926514 0
v -17.6000003814697 -3.19999980926514 0
v -17.9200000762939 -3.19999980926514 0
v -18.2399997711182 -3.19999980926514 0
v 0 -3.51999998092651 0
v -0.319999992847443 -3.51999998092651 0
v -0.449999988079071 -3.51999998092651 0
v -0.769999980926514 -3.51999998092651 0
v -1.0900000333786 -3.51999998092651 0
v -1.4099999666214 -3.51999998092651 0
v -1.73000001907349 -3.51999998092651 0
v -2.04999995231628 -3.51999998092651 0
v -2.36999988555908 -3.51999998092651 0
v -2.69000005722046 -3.51999998092651 0
v -3.00999999046326 -3.51999998092651 0
v -3.32999992370605 -3.51999998092651 0
v -3.64999985694885 -3.51999998092651 0
v -3.97000002861023 -3.51999998092651 0
v -4.28999996185303 -3.51999998092651 0
v -4.6100001335144 -3.51999998092651 0
v -4.92999982833862 -3.51999998092651 0
v -5.25 -3.51999998092651 0
v -5.56999969482422 -3.51999998092651 0
v -5.8899998664856 -3.51999998092651 0
v -6.21000003814697 -3.51999998092651 0
v -6.52999973297119 -3.51999998092651 0
v -6.84999990463257 -3.51999998092651 0
v -7.17000007629395 -3.51999998092651 0
v -7.48999977111816 -3.51999998092651 0
v -7.80999994277954 -3.51999998092651 0
v -8.13000011444092 -3.51999998092651 0
v -8.44999980926514 -3.51999998092651 0
v -8.76999950408936 -3.51999998092651 0
v -9.09000015258789 -3.51999998092651 0
v -9.40999984741211 -3.51999998092651 0
v -9.72999954223633 -3.51999998092651 0
v -10.0500001907349 -3.51999998092651 0
v -10.3699998855591 -3.51999998092651 0
v -10.6899995803833 -3.51999998092651 0
v -11.0100002288818 -3.51999998092651 0
v -11.3299999237061 -3.51999998092651 0
v -11.6499996185303 -3.51999998092651 0
v -11.9699993133545 -3.51999998092651 0
v -12.289999961853 -3.51999998092651 0
v -12.6099996566772 -3.51999998092651 0
v -12.9299993515015 -3.51999998092651 0
v -13.25 -3.51999998092651 0
v -13.5699996948242 -3.51999998092651 0
v -13.8899993896484 -3.51999998092651 0
v -14.210000038147 -3.51999998092651 0
v -14.5299997329712 -3.51999998092651 0
v -14.8499994277954 -3.51999998092651 0
v -15.1700000762939 -3.51999998092651 0
v -15.039999961853 -3.51999998092651 0
v -15.3599996566772 -3.51999998092651 0
v -15.6799993515015 -3.51999998092651 0
v -16 -3.51999998092651 0
v -16.3199996948242 -3.51999998092651 0
v -16.6399993896484 -3.51999998092651 0
v -16.9599990844727 -3.51999998092651 0
v -17.2799987792969 -3.51999998092651 0
v -17.6000003814697 -3.51999998092651 0
v -17.9200000762939 -3.51999998092651 0
v -18.2399997711182 -3.51999998092651 0
v 0 -3.83999991416931 0
v -0.319999992847443 -3.83999991416931 0
v -0.449999988079071 -3.83999991416931 0
v -0.769999980926514 -3.83999991416931 0
v -1.0900000333786 -3.83999991416931 0
v -1.4099999666214 -3.83999991416931 0
v -1.73000001907349 -3.83999991416931 0
v -2.04999995231628 -3.83999991416931 0
v -2.36999988555908 -3.83999991416931 0
v -2.69000005722046 -3.83999991416931 0
v -3.00999999046326 -3.83999991416931 0
v -3.32999992370605 -3.83999991416931 0
v -3.64999985694885 -3.83999991416931 0
v -3.97000002861023 -3.83999991416931 0
v -4.28999996185303 -3.83999991416931 0
v -4.6100001335144 -3.83999991416931 0
v -4.92999982833862 -3.83999991416931 0
v -5.25 -3.83999991416931 0
v -5.56999969482422 -3.83999991416931 0
v -5.8899998664856 -3.83999991416931 0
v -6.21000003814697 -3.83999991416931 0
v -6.52999973297119 -3.83999991416931 0
v -6.84999990463257 -3.83999991416931 0
v -7.17000007629395 -3.83999991416931 0
v -7.48999977111816 -3.83999991416931 0
v -7.80999994277954 -3.83999991416931 0
v -8.13000011444092 -3.83999991416931 0
v -8.44999980926514 -3.83999991416931 0
v -8.76999950408936 -3.83999991416931 0
v -9.09000015258789 -3.83999991416931 0
v -9.40999984741211 -3.83999991416931 0
v -9.72999954223633 -3.83999991416931 0
v -10.0500001907349 -3.83999991416931 0
v -10.3699998855591 -3.83999991416931 0
v -10.6899995803833 -3.83999991416931 0
v -11.0100002288818 -3.83999991416931 0
v -11.3299999237061 -3.83999991416931 0
v -11.6499996185303 -3.83999991416931 0
v -11.9699993133545 -3.83999991416931 0
v -12.289999961853 -3.83999991416931 0
v -12.6099996566772 -3.83999991416931 0
v -12.9299993515015 -3.83999991416931 0
v -13.25 -3.83999991416931 0
v -13.5699996948242 -3.83999991416931 0
v -13.8899993896484 -3.83999991416931 0
v -14.210000038147 -3.83999991416931 0
v -14.5299997329712 -3.83999991416931 0
v -14.8499994277954 -3.83999991416931 0
v -15.1700000762939 -3.83999991416931 0
v -15.039999961853 -3.83999991416931 0
v -15.3599996566772 -3.83999991416931 0
v -15.6799993515015 -3.83999991416931 0
v -16 -3.83999991416931 0
v -16.3199996948242 -3.83999991416931 0
v -16.6399993896484 -3.83999991416931 0
v -16.9599990844727 -3.83999991416931 0
v -17.2799987792969 -3.83999991416931 0
v -17.6000003814697 -3.83999991416931 0
v -17.9200000762939 -3.83999991416931 0
v -18.2399997711182 -3.83999991416931 0
v 0 -4.15999984741211 0
v -0.319999992847443 -4.15999984741211 0
v -0.639999985694885 -4.15999984741211 0
v -0.639999985694885 -3.83999991416931 0
v -0.959999978542328 -4.15999984741211 0
v -0.959999978542328 -3.83999991416931 0
v -1.27999997138977 -4.15999984741211 0
v -1.27999997138977 -3.83999991416931 0
v -1.59999990463257 -4.15999984741211 0
v -1.59999990463257 -3.83999991416931 0
v -1.91999995708466 -4.15999984741211 0
v -1.91999995708466 -3.83999991416931 0
v -2.24000000953674 -4.15999984741211 0
v -2.24000000953674 -3.83999991416931 0
v -2.55999994277954 -4.15999984741211 0
v -2.55999994277954 -3.83999991416931 0
v -2.87999987602234 -4.15999984741211 0
v -2.87999987602234 -3.83999991416931 0
v -3.19999980926514 -4.15999984741211 0
v -3.19999980926514 -3.83999991416931 0
v -3.51999998092651 -4.15999984741211 0
v -3.51999998092651 -3.83999991416931 0
v -3.83999991416931 -4.15999984741211 0
v -3.83999991416931 -3.83999991416931 0
v -4.15999984741211 -4.15999984741211 0
v -4.15999984741211 -3.83999991416931 0
v -4.48000001907349 -4.15999984741211 0
v -4.48000001907349 -3.83999991416931 0
v -4.79999971389771 -4.15999984741211 0
v -4.79999971389771 -3.83999991416931 0
v -5.11999988555908 -4.15999984741211 0
v -5.11999988555908 -3.83999991416931 0
v -5.44000005722046 -4.15999984741211 0
v -5.44000005722046 -3.83999991416931 0
v -5.75999975204468 -4.15999984741211 0
v -5.75999975204468 -3.83999991416931 0
v -6.07999992370605 -4.15999984741211 0
v -6.07999992370605 -3.83999991416931 0
v -6.39999961853027 -4.15999984741211 0
v -6.39999961853027 -3.83999991416931 0
v -6.71999979019165 -4.15999984741211 0
v -6.71999979019165 -3.83999991416931 0
v -7.03999996185303 -4.15999984741211 0
v -7.03999996185303 -3.83999991416931 0
v -7.35999965667725 -4.15999984741211 0
v -7.35999965667725 -3.83999991416931 0
v -7.67999982833862 -4.15999984741211 0
v -7.67999982833862 -3.83999991416931 0
v -8 -4.15999984741211 0
v -8 -3.83999991416931 0
v -8.31999969482422 -4.15999984741211 0
v -8.31999969482422 -3.83999991416931 0
v -8.63999938964844 -4.15999984741211 0
v -8.63999938964844 -3.83999991416931 0
v -8.96000003814697 -4.15999984741211 0
v -8.96000003814697 -3.83999991416931 0
v -9.27999973297119 -4.15999984741211 0
v -9.27999973297119 -3.83999991416931 0
v -9.59999942779541 -4.15999984741211 0
v -9.59999942779541 -3.83999991416931 0
v -9.92000007629395 -4.15999984741211 0
v -9.92000007629395 -3.83999991416931 0
v -10.2399997711182 -4.15999984741211 0
v -10.2399997711182 -3.83999991416931 0
v -10.5599994659424 -4.15999984741211 0
v -10.5599994659424 -3.83999991416931 0
v -10.8800001144409 -4.15999984741211 0
v -10.8800001144409 -3.83999991416931 0
v -11.1999998092651 -4.15999984741211 0
v -11.1999998092651 -3.83999991416931 0
v -11.5199995040894 -4.15999984741211 0
v -11.5199995040894 -3.83999991416931 0
v -11.8400001525879 -4.15999984741211 0
v -11.8400001525879 -3.83999991416931 0
v -12.1599998474121 -4.15999984741211 0
v -12.1599998474121 -3.83999991416931 0
v -12.4799995422363 -4.15999984741211 0
v -12.4799995422363 -3.83999991416931 0
v -12.7999992370605 -4.15999984741211 0
v -12.7999992370605 -3.83999991416931 0
v -13.1199998855591 -4.15999984741211 0
v -13.1199998855591 -3.83999991416931 0
v -13.4399995803833 -4.15999984741211 0
v -13.4399995803833 -3.83999991416931 0
v -13.7599992752075 -4.15999984741211 0
v -13.7599992752075 -3.83999991416931 0
v -14.0799999237061 -4.15999984741211 0
v -14.0799999237061 -3.83999991416931 0
v -14.3999996185303 -4.15999984741211 0
v -14.3999996185303 -3.83999991416931 0
v -14.7199993133545 -4.15999984741211 0
v -14.7199993133545 -3.83999991416931 0
v -15.039999961853 -4.15999984741211 0
v -15.3599996566772 -4.15999984741211 0
v -15.6799993515015 -4.15999984741211 0
v -16 -4.15999984741211 0
v -16.3199996948242 -4.15999984741211 0
v -16.6399993896484 -4.15999984741211 0
v -16.9599990844727 -4.15999984741211 0
v -17.2799987792969 -4.15999984741211 0
v -17.6000003814697 -4.15999984741211 0
v -17.9200000762939 -4.15999984741211 0
v -18.2399997711182 -4.15999984741211 0
v -0.129999995231628 -1.59999990463257 0
v -0.449999988079071 -1.36000001430511 0
v -0.129999995231628 -1.36000001430511 0
v -0.199999988079071 -1.59999990463257 0
v -0.519999980926514 -1.59999990463257 0
v -0.519999980926514 -1.36000001430511 0
v -0.199999988079071 -1.36000001430511 0
v -0.839999973773956 -1.59999990463257 0
v -0.839999973773956 -1.36000001430511 0
v -1.1599999666214 -1.59999990463257 0
v -1.1599999666214 -1.36000001430511 0
v -1.48000001907349 -1.59999990463257 0
v -1.48000001907349 -1.36000001430511 0
v -1.79999995231628 -1.59999990463257 0
v -1.79999995231628 -1.36000001430511 0
v -2.11999988555908 -1.59999990463257 0
v -2.11999988555908 -1.36000001430511 0
v -2.44000005722046 -1.59999990463257 0
v -2.44000005722046 -1.36000001430511 0
v -2.75999999046326 -1.59999990463257 0
v -2.75999999046326 -1.36000001430511 0
v -3.07999992370605 -1.59999990463257 0
v -3.07999992370605 -1.36000001430511 0
v -3.39999985694885 -1.59999990463257 0
v -3.39999985694885 -1.36000001430511 0
v -3.72000002861023 -1.59999990463257 0
v -3.72000002861023 -1.36000001430511 0
v -4.03999996185303 -1.59999990463257 0
v -4.03999996185303 -1.36000001430511 0
v -4.3600001335144 -1.59999990463257 0
v -4.3600001335144 -1.36000001430511 0
v -4.67999982833862 -1.59999990463257 0
v -4.67999982833862 -1.36000001430511 0
v -5 -1.59999990463257 0
v -5 -1.36000001430511 0
v -5.31999969482422 -1.59999990463257 0
v -5.31999969482422 -1.36000001430511 0
v -5.6399998664856 -1.59999990463257 0
v -5.6399998664856 -1.36000001430511 0
v -5.96000003814697 -1.59999990463257 0
v -5.96000003814697 -1.36000001430511 0
v -6.27999973297119 -1.59999990463257 0
v -6.27999973297119 -1.36000001430511 0
v -6.59999990463257 -1.59999990463257 0
v -6.59999990463257 -1.36000001430511 0
v -6.92000007629395 -1.59999990463257 0
v -6.92000007629395 -1.36000001430511 0
v -7.23999977111816 -1.59999990463257 0
v -7.23999977111816 -1.36000001430511 0
v -7.55999994277954 -1.59999990463257 0
v -7.55999994277954 -1.36000001430511 0
v -7.87999963760376 -1.59999990463257 0
v -7.87999963760376 -1.36000001430511 0
v -8.19999980926514 -1.59999990463257 0
v -8.19999980926514 -1.36000001430511 0
v -8.51999950408936 -1.59999990463257 0
v -8.51999950408936 -1.36000001430511 0
v -8.84000015258789 -1.59999990463257 0
v -8.84000015258789 -1.36000001430511 0
v -9.15999984741211 -1.59999990463257 0
v -9.15999984741211 -1.36000001430511 0
v -9.47999954223633 -1.59999990463257 0
v -9.47999954223633 -1.36000001430511 0
v -9.80000019073486 -1.59999990463257 0
v -9.80000019073486 -1.36000001430511 0
v -10.1199998855591 -1.59999990463257 0
v -10.1199998855591 -1.36000001430511 0
v -10.4399995803833 -1.59999990463257 0
v -10.4399995803833 -1.36000001430511 0
v -10.7600002288818 -1.59999990463257 0
v -10.7600002288818 -1.36000001430511 0
v -11.0799999237061 -1.59999990463257 0
v -11.0799999237061 -1.36000001430511 0
v -11.3999996185303 -1.59999990463257 0
v -11.3999996185303 -1.36000001430511 0
v -11.7199993133545 -1.59999990463257 0
v -11.7199993133545 -1.36000001430511 0
v -12.039999961853 -1.59999990463257 0
v -12.039999961853 -1.36000001430511 0
v -12.3599996566772 -1.59999990463257 0
v -12.3599996566772 -1.36000001430511 0
v -12.6799993515015 -1.59999990463257 0
v -12.6799993515015 -1.36000001430511 0
v -13 -1.59999990463257 0
v -13 -1.36000001430511 0
v -13.3199996948242 -1.59999990463257 0
v -13.3199996948242 -1.36000001430511 0
v -13.6399993896484 -1.59999990463257 0
v -13.6399993896484 -1.36000001430511 0
v -13.960000038147 -1.59999990463257 0
v -13.960000038147 -1.36000001430511 0
v -14.2799997329712 -1.59999990463257 0
v -14.2799997329712 -1.36000001430511 0
v -14.5999994277954 -1.59999990463257 0
v -14.5999994277954 -1.36000001430511 0
v -14.9200000762939 -1.59999990463257 0
v -14.9200000762939 -1.36000001430511 0
v -15.2399997711182 -1.59999990463257 0
v -15.2399997711182 -1.36000001430511 0
v -0.129999995231628 -1.91999995708466 0
v -14.9200000762939 -1.91999995708466 0
v -15.2399997711182 -1.91999995708466 0
v -0.129999995231628 -2.24000000953674 0
v -14.9200000762939 -2.24000000953674 0
v -15.2399997711182 -2.24000000953674 0
v -0.129999995231628 -2.55999994277954 0
v -4.48000001907349 -2.55999994277954 0
v -4.79999971389771 -2.55999994277954 0
v -4.79999971389771 -2.24000000953674 0
v -4.48000001907349 -2.24000000953674 0
v -5.11999988555908 -2.55999994277954 0
v -5.11999988555908 -2.24000000953674 0
v -5.44000005722046 -2.55999994277954 0
v -5.44000005722046 -2.24000000953674 0
v -5.75999975204468 -2.55999994277954 0
v -5.75999975204468 -2.24000000953674 0
v -14.9200000762939 -2.55999994277954 0
v -15.2399997711182 -2.55999994277954 0
v -0.129999995231628 -2.87999987602234 0
v -4.48000001907349 -2.87999987602234 0
v -4.79999971389771 -2.87999987602234 0
v -5.11999988555908 -2.87999987602234 0
v -5.44000005722046 -2.87999987602234 0
v -5.75999975204468 -2.87999987602234 0
v -14.9200000762939 -2.87999987602234 0
v -15.2399997711182 -2.87999987602234 0
v -0.129999995231628 -3.19999980926514 0
v -4.48000001907349 -3.19999980926514 0
v -4.79999971389771 -3.19999980926514 0
v -5.11999988555908 -3.19999980926514 0
v -5.44000005722046 -3.19999980926514 0
v -5.75999975204468 -3.19999980926514 0
v -14.9200000762939 -3.19999980926514 0
v -15.2399997711182 -3.19999980926514 0
v -0.129999995231628 -3.51999998092651 0
v -0.639999985694885 -3.51999998092651 0
v -0.639999985694885 -3.19999980926514 0
v -0.959999978542328 -3.51999998092651 0
v -0.959999978542328 -3.19999980926514 0
v -1.27999997138977 -3.51999998092651 0
v -1.27999997138977 -3.19999980926514 0
v -1.59999990463257 -3.51999998092651 0
v -1.59999990463257 -3.19999980926514 0
v -4.48000001907349 -3.51999998092651 0
v -4.79999971389771 -3.51999998092651 0
v -5.11999988555908 -3.51999998092651 0
v -5.44000005722046 -3.51999998092651 0
v -5.75999975204468 -3.51999998092651 0
v -14.9200000762939 -3.51999998092651 0
v -15.2399997711182 -3.51999998092651 0
v -0.129999995231628 -3.83999991416931 0
v -14.9200000762939 -3.83999991416931 0
v -15.2399997711182 -3.83999991416931 0
v -0.319999992847443 -3.91999983787537 0
v 0 -3.91999983787537 0
v -15.3599996566772 -3.91999983787537 0
v -15.039999961853 -3.91999983787537 0

# Texture Coorindates (Count = 179)
vt 0.2728494 0.8751221
vt 0.3635143 0.8751221
vt 0.3635143 0.9998779
vt 0.2728494 0.9998779
vt 0.3637584 0.8751221
vt 0.4544234 0.8751221
vt 0.4544234 0.9998779
vt 0.3637584 0.9998779
vt 0.4546675 0.8751221
vt 0.5453325 0.8751221
vt 0.5453325 0.9998779
vt 0.4546675 0.9998779
vt 0.5455766 0.6251221
vt 0.6362416 0.6251221
vt 0.6362416 0.7498779
vt 0.5455766 0.7498779
vt 0.09103116 0.7501221
vt 0.1816961 0.7501221
vt 0.1816961 0.8748779
vt 0.09103116 0.8748779
vt 0.1819403 0.7501221
vt 0.2726052 0.7501221
vt 0.2726052 0.8748779
vt 0.1819403 0.8748779
vt 0.2728494 0.7501221
vt 0.3635143 0.7501221
vt 0.3635143 0.8748779
vt 0.2728494 0.8748779
vt 0.3637584 0.7501221
vt 0.4544234 0.7501221
vt 0.4544234 0.8748779
vt 0.3637584 0.8748779
vt 0.4546675 0.7501221
vt 0.5453325 0.7501221
vt 0.5453325 0.8748779
vt 0.4546675 0.8748779
vt 0.0001220703 0.8001221
vt 0.1998779 0.8001221
vt 0.1998779 0.9998779
vt 0.0001220703 0.9998779
vt 0.2001221 0.8001221
vt 0.3998779 0.8001221
vt 0.3998779 0.9998779
vt 0.2001221 0.9998779
vt 0.4001221 0.8001221
vt 0.599878 0.8001221
vt 0.599878 0.9998779
vt 0.4001221 0.9998779
vt 0.6001221 0.8001221
vt 0.7998779 0.8001221
vt 0.7998779 0.9998779
vt 0.6001221 0.9998779
vt 0.09103116 0.2501221
vt 0.1816961 0.2501221
vt 0.1816961 0.3748779
vt 0.09103116 0.3748779
vt 0.1819403 0.2501221
vt 0.2726052 0.2501221
vt 0.2726052 0.3748779
vt 0.1819403 0.3748779
vt 0.2728494 0.2501221
vt 0.3635143 0.2501221
vt 0.3635143 0.3748779
vt 0.2728494 0.3748779
vt 0.3637584 0.2501221
vt 0.4544234 0.2501221
vt 0.4544234 0.3748779
vt 0.3637584 0.3748779
vt 0.4546675 0.2501221
vt 0.5453325 0.2501221
vt 0.5453325 0.3748779
vt 0.4546675 0.3748779
vt 0.09103116 0.1251221
vt 0.1816961 0.1251221
vt 0.1816961 0.2498779
vt 0.09103116 0.2498779
vt 0.0001220703 0.5001221
vt 0.4998779 0.5001221
vt 0.4998779 0.9998779
vt 0.5001221 0.5001221
vt 0.9998779 0.5001221
vt 0.9998779 0.9998779
vt 0.5001221 0.9998779
vt 0.4546675 0.1251221
vt 0.5453325 0.1251221
vt 0.5453325 0.2498779
vt 0.4546675 0.2498779
vt 0.0001220703 0.0001220703
vt 0.4998779 0.0001220703
vt 0.4998779 0.4998779
vt 0.0001220703 0.4998779
vt 0.5001221 0.0001220703
vt 0.9998779 0.0001220703
vt 0.9998779 0.4998779
vt 0.5001221 0.4998779
vt 0.0001220703 0.6001221
vt 0.1998779 0.6001221
vt 0.1998779 0.7998779
vt 0.0001220703 0.7998779
vt 0.2001221 0.6001221
vt 0.3998779 0.6001221
vt 0.3998779 0.7998779
vt 0.2001221 0.7998779
vt 0.4001221 0.6001221
vt 0.599878 0.6001221
vt 0.599878 0.7998779
vt 0.4001221 0.7998779
vt 0.0001220703 0.4001221
vt 0.1998779 0.4001221
vt 0.1998779 0.599878
vt 0.0001220703 0.599878
vt 0.2001221 0.4001221
vt 0.3998779 0.4001221
vt 0.3998779 0.599878
vt 0.2001221 0.599878
vt 0.4001221 0.4001221
vt 0.599878 0.4001221
vt 0.599878 0.599878
vt 0.4001221 0.599878
vt 0.0001220703 0.6251221
vt 0.4998779 0.6251221
vt 0.0001220703 0.2501221
vt 0.4998779 0.2501221
vt 0.4998779 0.6248779
vt 0.0001220703 0.6248779
vt 0.5001221 0.2501221
vt 0.9998779 0.2501221
vt 0.9998779 0.6248779
vt 0.5001221 0.6248779
vt 0.0001220703 0.7501221
vt 0.2498779 0.7501221
vt 0.2498779 0.9998779
vt 0.2501221 0.7501221
vt 0.4998779 0.7501221
vt 0.2501221 0.9998779
vt 0.5001221 0.7501221
vt 0.7498779 0.7501221
vt 0.7498779 0.9998779
vt 0.7501221 0.7501221
vt 0.9998779 0.7501221
vt 0.7501221 0.9998779
vt 0.2498779 0.5001221
vt 0.2498779 0.7498779
vt 0.0001220703 0.7498779
vt 0.2501221 0.5001221
vt 0.4998779 0.7498779
vt 0.2501221 0.7498779
vt 0.7498779 0.5001221
vt 0.7498779 0.7498779
vt 0.5001221 0.7498779
vt 0.7501221 0.5001221
vt 0.9998779 0.7498779
vt 0.7501221 0.7498779
vt 0.2498779 0.2501221
vt 0.2498779 0.4998779
vt 0.2501221 0.2501221
vt 0.2501221 0.4998779
vt 0.7498779 0.2501221
vt 0.7498779 0.4998779
vt 0.7501221 0.2501221
vt 0.7501221 0.4998779
vt 0.2498779 0.0001220703
vt 0.2501221 0.0001220703
vt 0.7498779 0.0001220703
vt 0.7501221 0.0001220703
vt 0.2498779 0.2498779
vt 0.0001220703 0.2498779
vt 0.4998779 0.2498779
vt 0.2501221 0.2498779
vt 0.7498779 0.2498779
vt 0.5001221 0.2498779
vt 0.9998779 0.2498779
vt 0.7501221 0.2498779
vt 0.2726052 0.3436279
vt 0.1819403 0.3436279
vt 0.6364857 0.7501221
vt 0.7271507 0.7501221
vt 0.7271507 0.8748779
vt 0.6364857 0.8748779

# Normal
vn 0 0 -1

# Groups (Count = 8)
g mesh_[00]_[00]
f  1/1/1  2/2/1  3/3/1  4/4/1 
f  2/5/1  5/6/1  6/7/1  3/8/1 
f  5/5/1  7/6/1  8/7/1  6/8/1 
f  7/5/1  9/6/1  10/7/1  8/8/1 
f  9/5/1  11/6/1  12/7/1  10/8/1 
f  11/5/1  13/6/1  14/7/1  12/8/1 
f  13/5/1  15/6/1  16/7/1  14/8/1 
f  15/5/1  17/6/1  18/7/1  16/8/1 
f  17/5/1  19/6/1  20/7/1  18/8/1 
f  19/5/1  21/6/1  22/7/1  20/8/1 
f  21/5/1  23/6/1  24/7/1  22/8/1 
f  23/5/1  25/6/1  26/7/1  24/8/1 
f  25/5/1  27/6/1  28/7/1  26/8/1 
f  27/5/1  29/6/1  30/7/1  28/8/1 
f  29/5/1  31/6/1  32/7/1  30/8/1 
f  31/5/1  33/6/1  34/7/1  32/8/1 
f  33/5/1  35/6/1  36/7/1  34/8/1 
f  35/5/1  37/6/1  38/7/1  36/8/1 
f  37/5/1  39/6/1  40/7/1  38/8/1 
f  39/5/1  41/6/1  42/7/1  40/8/1 
f  41/5/1  43/6/1  44/7/1  42/8/1 
f  43/5/1  45/6/1  46/7/1  44/8/1 
f  45/5/1  47/6/1  48/7/1  46/8/1 
f  47/5/1  49/6/1  50/7/1  48/8/1 
f  49/5/1  51/6/1  52/7/1  50/8/1 
f  51/5/1  53/6/1  54/7/1  52/8/1 
f  53/5/1  55/6/1  56/7/1  54/8/1 
f  55/5/1  57/6/1  58/7/1  56/8/1 
f  57/5/1  59/6/1  60/7/1  58/8/1 
f  59/5/1  61/6/1  62/7/1  60/8/1 
f  61/5/1  63/6/1  64/7/1  62/8/1 
f  63/5/1  65/6/1  66/7/1  64/8/1 
f  65/5/1  67/6/1  68/7/1  66/8/1 
f  67/5/1  69/6/1  70/7/1  68/8/1 
f  69/5/1  71/6/1  72/7/1  70/8/1 
f  71/5/1  73/6/1  74/7/1  72/8/1 
f  73/5/1  75/6/1  76/7/1  74/8/1 
f  75/5/1  77/6/1  78/7/1  76/8/1 
f  77/5/1  79/6/1  80/7/1  78/8/1 
f  79/5/1  81/6/1  82/7/1  80/8/1 
f  81/5/1  83/6/1  84/7/1  82/8/1 
f  83/5/1  85/6/1  86/7/1  84/8/1 
f  85/5/1  87/6/1  88/7/1  86/8/1 
f  87/5/1  89/6/1  90/7/1  88/8/1 
f  89/5/1  91/6/1  92/7/1  90/8/1 
f  91/5/1  93/6/1  94/7/1  92/8/1 
f  93/5/1  95/6/1  96/7/1  94/8/1 
f  95/9/1  97/10/1  98/11/1  96/12/1 
f  97/13/1  99/14/1  100/15/1  98/16/1 
f  99/13/1  101/14/1  102/15/1  100/16/1 
f  101/13/1  103/14/1  104/15/1  102/16/1 
f  103/13/1  105/14/1  106/15/1  104/16/1 
f  105/13/1  107/14/1  108/15/1  106/16/1 
f  107/13/1  109/14/1  110/15/1  108/16/1 
f  109/13/1  111/14/1  112/15/1  110/16/1 
f  111/13/1  113/14/1  114/15/1  112/16/1 
f  115/17/1  116/18/1  2/19/1  1/20/1 
f  116/21/1  117/22/1  5/23/1  2/24/1 
f  117/25/1  118/26/1  7/27/1  5/28/1 
f  118/29/1  119/30/1  9/31/1  7/32/1 
f  119/29/1  120/30/1  11/31/1  9/32/1 
f  120/29/1  121/30/1  13/31/1  11/32/1 
f  121/29/1  122/30/1  15/31/1  13/32/1 
f  122/29/1  123/30/1  17/31/1  15/32/1 
f  123/29/1  124/30/1  19/31/1  17/32/1 
f  124/29/1  125/30/1  21/31/1  19/32/1 
f  125/29/1  126/30/1  23/31/1  21/32/1 
f  126/29/1  127/30/1  25/31/1  23/32/1 
f  127/29/1  128/30/1  27/31/1  25/32/1 
f  128/29/1  129/30/1  29/31/1  27/32/1 
f  129/29/1  130/30/1  31/31/1  29/32/1 
f  130/29/1  131/30/1  33/31/1  31/32/1 
f  131/29/1  132/30/1  35/31/1  33/32/1 
f  132/29/1  133/30/1  37/31/1  35/32/1 
f  133/29/1  134/30/1  39/31/1  37/32/1 
f  134/29/1  135/30/1  41/31/1  39/32/1 
f  135/29/1  136/30/1  43/31/1  41/32/1 
f  136/29/1  137/30/1  45/31/1  43/32/1 
f  137/29/1  138/30/1  47/31/1  45/32/1 
f  138/29/1  139/30/1  49/31/1  47/32/1 
f  139/29/1  140/30/1  51/31/1  49/32/1 
f  140/29/1  141/30/1  53/31/1  51/32/1 
f  141/29/1  142/30/1  55/31/1  53/32/1 
f  142/29/1  143/30/1  57/31/1  55/32/1 
f  143/29/1  144/30/1  59/31/1  57/32/1 
f  144/29/1  145/30/1  61/31/1  59/32/1 
f  145/29/1  146/30/1  63/31/1  61/32/1 
f  146/5/1  147/6/1  65/7/1  63/8/1 
f  147/5/1  148/6/1  67/7/1  65/8/1 
f  148/5/1  149/6/1  69/7/1  67/8/1 
f  149/5/1  150/6/1  71/7/1  69/8/1 
f  150/5/1  151/6/1  73/7/1  71/8/1 
f  151/5/1  152/6/1  75/7/1  73/8/1 
f  152/5/1  153/6/1  77/7/1  75/8/1 
f  153/5/1  154/6/1  79/7/1  77/8/1 
f  154/5/1  155/6/1  81/7/1  79/8/1 
f  155/5/1  156/6/1  83/7/1  81/8/1 
f  156/5/1  157/6/1  85/7/1  83/8/1 
f  157/5/1  158/6/1  87/7/1  85/8/1 
f  158/5/1  159/6/1  89/7/1  87/8/1 
f  159/29/1  160/30/1  91/31/1  89/32/1 
f  160/29/1  161/30/1  93/31/1  91/32/1 
f  161/29/1  162/30/1  95/31/1  93/32/1 
f  162/33/1  163/34/1  97/35/1  95/36/1 
f  163/13/1  164/14/1  99/15/1  97/16/1 
f  164/13/1  165/14/1  101/15/1  99/16/1 
f  165/13/1  166/14/1  103/15/1  101/16/1 
f  166/13/1  167/14/1  105/15/1  103/16/1 
f  167/13/1  168/14/1  107/15/1  105/16/1 
f  168/13/1  169/14/1  109/15/1  107/16/1 
f  169/13/1  170/14/1  111/15/1  109/16/1 
f  170/13/1  171/14/1  113/15/1  111/16/1 
f  172/17/1  173/18/1  116/19/1  115/20/1 
f  173/17/1  174/18/1  117/19/1  116/20/1 
f  174/17/1  175/18/1  118/19/1  117/20/1 
f  175/17/1  176/18/1  119/19/1  118/20/1 
f  176/17/1  177/18/1  120/19/1  119/20/1 
f  177/17/1  178/18/1  121/19/1  120/20/1 
f  178/17/1  179/18/1  122/19/1  121/20/1 
f  179/17/1  180/18/1  123/19/1  122/20/1 
f  180/17/1  181/18/1  124/19/1  123/20/1 
f  181/17/1  182/18/1  125/19/1  124/20/1 
f  182/17/1  183/18/1  126/19/1  125/20/1 
f  183/17/1  184/18/1  127/19/1  126/20/1 
f  184/17/1  185/18/1  128/19/1  127/20/1 
f  185/17/1  186/18/1  129/19/1  128/20/1 
f  186/17/1  187/18/1  130/19/1  129/20/1 
f  187/17/1  188/18/1  131/19/1  130/20/1 
f  188/17/1  189/18/1  132/19/1  131/20/1 
f  189/17/1  190/18/1  133/19/1  132/20/1 
f  190/17/1  191/18/1  134/19/1  133/20/1 
f  191/17/1  192/18/1  135/19/1  134/20/1 
f  192/17/1  193/18/1  136/19/1  135/20/1 
f  193/17/1  194/18/1  137/19/1  136/20/1 
f  194/17/1  195/18/1  138/19/1  137/20/1 
f  195/17/1  196/18/1  139/19/1  138/20/1 
f  196/21/1  197/22/1  140/23/1  139/24/1 
f  197/25/1  198/26/1  141/27/1  140/28/1 
f  198/29/1  199/30/1  142/31/1  141/32/1 
f  199/29/1  200/30/1  143/31/1  142/32/1 
f  200/29/1  201/30/1  144/31/1  143/32/1 
f  201/29/1  202/30/1  145/31/1  144/32/1 
f  202/29/1  203/30/1  146/31/1  145/32/1 
f  203/29/1  204/30/1  147/31/1  146/32/1 
f  204/29/1  205/30/1  148/31/1  147/32/1 
f  205/29/1  206/30/1  149/31/1  148/32/1 
f  206/29/1  207/30/1  150/31/1  149/32/1 
f  207/29/1  208/30/1  151/31/1  150/32/1 
f  208/29/1  209/30/1  152/31/1  151/32/1 
f  209/29/1  210/30/1  153/31/1  152/32/1 
f  210/29/1  211/30/1  154/31/1  153/32/1 
f  211/29/1  212/30/1  155/31/1  154/32/1 
f  212/29/1  213/30/1  156/31/1  155/32/1 
f  213/29/1  214/30/1  157/31/1  156/32/1 
f  214/29/1  215/30/1  158/31/1  157/32/1 
f  215/29/1  216/30/1  159/31/1  158/32/1 
f  216/17/1  217/18/1  160/19/1  159/20/1 
f  217/21/1  218/22/1  161/23/1  160/24/1 
f  218/25/1  219/26/1  162/27/1  161/28/1 
f  219/29/1  220/30/1  163/31/1  162/32/1 
f  220/9/1  221/10/1  164/11/1  163/12/1 
f  221/13/1  222/14/1  165/15/1  164/16/1 
f  222/13/1  223/14/1  166/15/1  165/16/1 
f  223/13/1  224/14/1  167/15/1  166/16/1 
f  224/13/1  225/14/1  168/15/1  167/16/1 
f  225/13/1  226/14/1  169/15/1  168/16/1 
f  226/13/1  227/14/1  170/15/1  169/16/1 
f  227/13/1  228/14/1  171/15/1  170/16/1 
f  229/17/1  230/18/1  173/19/1  172/20/1 
f  230/17/1  231/18/1  174/19/1  173/20/1 
f  231/21/1  232/22/1  175/23/1  174/24/1 
f  232/25/1  233/26/1  176/27/1  175/28/1 
f  233/29/1  234/30/1  177/31/1  176/32/1 
f  234/29/1  235/30/1  178/31/1  177/32/1 
f  235/29/1  236/30/1  179/31/1  178/32/1 
f  236/29/1  237/30/1  180/31/1  179/32/1 
f  237/29/1  238/30/1  181/31/1  180/32/1 
f  238/29/1  239/30/1  182/31/1  181/32/1 
f  239/29/1  240/30/1  183/31/1  182/32/1 
f  240/29/1  241/30/1  184/31/1  183/32/1 
f  241/29/1  242/30/1  185/31/1  184/32/1 
f  242/29/1  243/30/1  186/31/1  185/32/1 
f  243/29/1  244/30/1  187/31/1  186/32/1 
f  244/29/1  245/30/1  188/31/1  187/32/1 
f  245/29/1  246/30/1  189/31/1  188/32/1 
f  246/29/1  247/30/1  190/31/1  189/32/1 
f  247/29/1  248/30/1  191/31/1  190/32/1 
f  248/29/1  249/30/1  192/31/1  191/32/1 
f  249/29/1  250/30/1  193/31/1  192/32/1 
f  250/29/1  251/30/1  194/31/1  193/32/1 
f  251/29/1  252/30/1  195/31/1  194/32/1 
f  252/29/1  253/30/1  196/31/1  195/32/1 
f  253/29/1  254/30/1  197/31/1  196/32/1 
f  254/29/1  255/30/1  198/31/1  197/32/1 
f  255/29/1  256/30/1  199/31/1  198/32/1 
f  256/29/1  257/30/1  200/31/1  199/32/1 
f  257/29/1  258/30/1  201/31/1  200/32/1 
f  258/29/1  259/30/1  202/31/1  201/32/1 
f  259/29/1  260/30/1  203/31/1  202/32/1 
f  260/29/1  261/30/1  204/31/1  203/32/1 
f  261/29/1  262/30/1  205/31/1  204/32/1 
f  262/29/1  263/30/1  206/31/1  205/32/1 
f  263/17/1  264/18/1  207/19/1  206/20/1 
f  264/21/1  265/22/1  208/23/1  207/24/1 
f  265/25/1  266/26/1  209/27/1  208/28/1 
f  266/29/1  267/30/1  210/31/1  209/32/1 
f  267/29/1  268/30/1  211/31/1  210/32/1 
f  268/29/1  269/30/1  212/31/1  211/32/1 
f  269/29/1  270/30/1  213/31/1  212/32/1 
f  270/29/1  271/30/1  214/31/1  213/32/1 
f  271/29/1  272/30/1  215/31/1  214/32/1 
f  272/29/1  273/30/1  216/31/1  215/32/1 
f  273/17/1  274/18/1  217/19/1  216/20/1 
f  274/21/1  275/22/1  218/23/1  217/24/1 
f  275/25/1  276/26/1  219/27/1  218/28/1 
f  276/29/1  277/30/1  220/31/1  219/32/1 
f  277/33/1  278/34/1  221/35/1  220/36/1 
f  288/53/1  289/54/1  230/55/1  229/56/1 
f  289/57/1  290/58/1  231/59/1  230/60/1 
f  290/61/1  291/62/1  232/63/1  231/64/1 
f  291/65/1  292/66/1  233/67/1  232/68/1 
f  292/65/1  293/66/1  234/67/1  233/68/1 
f  293/65/1  294/66/1  235/67/1  234/68/1 
f  294/65/1  295/66/1  236/67/1  235/68/1 
f  295/65/1  296/66/1  237/67/1  236/68/1 
f  296/65/1  297/66/1  238/67/1  237/68/1 
f  297/65/1  298/66/1  239/67/1  238/68/1 
f  298/61/1  299/62/1  240/63/1  239/64/1 
f  299/65/1  300/66/1  241/67/1  240/68/1 
f  300/65/1  301/66/1  242/67/1  241/68/1 
f  301/65/1  302/66/1  243/67/1  242/68/1 
f  302/65/1  303/66/1  244/67/1  243/68/1 
f  303/65/1  304/66/1  245/67/1  244/68/1 
f  304/65/1  305/66/1  246/67/1  245/68/1 
f  305/65/1  306/66/1  247/67/1  246/68/1 
f  306/65/1  307/66/1  248/67/1  247/68/1 
f  307/65/1  308/66/1  249/67/1  248/68/1 
f  308/65/1  309/66/1  250/67/1  249/68/1 
f  309/57/1  310/58/1  251/59/1  250/60/1 
f  310/61/1  311/62/1  252/63/1  251/64/1 
f  311/65/1  312/66/1  253/67/1  252/68/1 
f  312/57/1  313/58/1  254/59/1  253/60/1 
f  313/61/1  314/62/1  255/63/1  254/64/1 
f  314/65/1  315/66/1  256/67/1  255/68/1 
f  315/61/1  316/62/1  257/63/1  256/64/1 
f  316/65/1  317/66/1  258/67/1  257/68/1 
f  317/57/1  318/58/1  259/59/1  258/60/1 
f  318/61/1  319/62/1  260/63/1  259/64/1 
f  319/61/1  320/62/1  261/63/1  260/64/1 
f  320/65/1  321/66/1  262/67/1  261/68/1 
f  321/57/1  322/58/1  263/59/1  262/60/1 
f  322/61/1  323/62/1  264/63/1  263/64/1 
f  323/61/1  324/62/1  265/63/1  264/64/1 
f  324/65/1  325/66/1  266/67/1  265/68/1 
f  325/57/1  326/58/1  267/59/1  266/60/1 
f  326/61/1  327/62/1  268/63/1  267/64/1 
f  327/61/1  328/62/1  269/63/1  268/64/1 
f  328/65/1  329/66/1  270/67/1  269/68/1 
f  329/57/1  330/58/1  271/59/1  270/60/1 
f  330/61/1  331/62/1  272/63/1  271/64/1 
f  331/65/1  332/66/1  273/67/1  272/68/1 
f  332/57/1  333/58/1  274/59/1  273/60/1 
f  333/61/1  334/62/1  275/63/1  274/64/1 
f  334/65/1  335/66/1  276/67/1  275/68/1 
f  335/69/1  336/70/1  277/71/1  276/72/1 
f  346/73/1  347/74/1  289/75/1  288/76/1 
f  442/84/1  443/85/1  336/86/1  335/87/1 
f  453/73/1  454/74/1  347/75/1  346/76/1 
f  502/84/1  503/85/1  443/86/1  442/87/1 
f  513/73/1  514/74/1  454/75/1  453/76/1 
f  562/84/1  563/85/1  503/86/1  502/87/1 
f  573/73/1  574/74/1  514/75/1  513/76/1 
f  622/84/1  623/85/1  563/86/1  562/87/1 
f  633/73/1  634/74/1  574/75/1  573/76/1 
f  682/84/1  683/85/1  623/86/1  622/87/1 
f  693/73/1  694/74/1  634/75/1  633/76/1 
f  753/73/1  754/74/1  694/75/1  693/76/1 
f  813/53/1  814/54/1  754/55/1  753/56/1 
f  814/61/1  815/62/1  816/63/1  754/64/1 
f  815/61/1  817/62/1  818/63/1  816/64/1 
f  817/57/1  819/58/1  820/59/1  818/60/1 
f  819/57/1  821/58/1  822/59/1  820/60/1 
f  821/57/1  823/58/1  824/59/1  822/60/1 
f  823/57/1  825/58/1  826/59/1  824/60/1 
f  825/57/1  827/58/1  828/59/1  826/60/1 
f  827/57/1  829/58/1  830/59/1  828/60/1 
f  829/57/1  831/58/1  832/59/1  830/60/1 
f  831/57/1  833/58/1  834/59/1  832/60/1 
f  833/57/1  835/58/1  836/59/1  834/60/1 
f  835/57/1  837/58/1  838/59/1  836/60/1 
f  837/57/1  839/58/1  840/59/1  838/60/1 
f  839/57/1  841/58/1  842/59/1  840/60/1 
f  841/57/1  843/58/1  844/59/1  842/60/1 
f  843/57/1  845/58/1  846/59/1  844/60/1 
f  845/57/1  847/58/1  848/59/1  846/60/1 
f  847/57/1  849/58/1  850/59/1  848/60/1 
f  849/57/1  851/58/1  852/59/1  850/60/1 
f  851/57/1  853/58/1  854/59/1  852/60/1 
f  853/57/1  855/58/1  856/59/1  854/60/1 
f  855/57/1  857/58/1  858/59/1  856/60/1 
f  857/57/1  859/58/1  860/59/1  858/60/1 
f  859/57/1  861/58/1  862/59/1  860/60/1 
f  861/57/1  863/58/1  864/59/1  862/60/1 
f  863/57/1  865/58/1  866/59/1  864/60/1 
f  865/57/1  867/58/1  868/59/1  866/60/1 
f  867/57/1  869/58/1  870/59/1  868/60/1 
f  869/57/1  871/58/1  872/59/1  870/60/1 
f  871/57/1  873/58/1  874/59/1  872/60/1 
f  873/57/1  875/58/1  876/59/1  874/60/1 
f  875/61/1  877/62/1  878/63/1  876/64/1 
f  877/57/1  879/58/1  880/59/1  878/60/1 
f  879/57/1  881/58/1  882/59/1  880/60/1 
f  881/57/1  883/58/1  884/59/1  882/60/1 
f  883/57/1  885/58/1  886/59/1  884/60/1 
f  885/57/1  887/58/1  888/59/1  886/60/1 
f  887/57/1  889/58/1  890/59/1  888/60/1 
f  889/61/1  891/62/1  892/63/1  890/64/1 
f  891/57/1  893/58/1  894/59/1  892/60/1 
f  893/57/1  895/58/1  896/59/1  894/60/1 
f  895/57/1  897/58/1  898/59/1  896/60/1 
f  897/57/1  899/58/1  900/59/1  898/60/1 
f  899/57/1  901/58/1  902/59/1  900/60/1 
f  901/57/1  903/58/1  904/59/1  902/60/1 
f  903/61/1  905/62/1  802/63/1  904/64/1 
f  905/69/1  906/70/1  803/71/1  802/72/1 
g mesh_[00]_[03]
f  278/37/1  279/38/1  222/39/1  221/40/1 
f  279/37/1  280/38/1  223/39/1  222/40/1 
f  280/37/1  281/38/1  224/39/1  223/40/1 
f  281/37/1  282/38/1  225/39/1  224/40/1 
f  282/37/1  283/38/1  226/39/1  225/40/1 
f  283/41/1  284/42/1  227/43/1  226/44/1 
f  284/45/1  285/46/1  228/47/1  227/48/1 
f  285/49/1  286/50/1  287/51/1  228/52/1 
f  336/37/1  337/38/1  278/39/1  277/40/1 
f  337/37/1  338/38/1  279/39/1  278/40/1 
f  338/37/1  339/38/1  280/39/1  279/40/1 
f  339/37/1  340/38/1  281/39/1  280/40/1 
f  340/37/1  341/38/1  282/39/1  281/40/1 
f  341/37/1  342/38/1  283/39/1  282/40/1 
f  342/41/1  343/42/1  284/43/1  283/44/1 
f  343/45/1  344/46/1  285/47/1  284/48/1 
f  344/49/1  345/50/1  286/51/1  285/52/1 
f  443/37/1  444/38/1  337/39/1  336/40/1 
f  444/37/1  445/38/1  338/39/1  337/40/1 
f  445/37/1  446/38/1  339/39/1  338/40/1 
f  446/37/1  447/38/1  340/39/1  339/40/1 
f  447/37/1  448/38/1  341/39/1  340/40/1 
f  448/37/1  449/38/1  342/39/1  341/40/1 
f  449/41/1  450/42/1  343/43/1  342/44/1 
f  450/45/1  451/46/1  344/47/1  343/48/1 
f  451/49/1  452/50/1  345/51/1  344/52/1 
f  503/37/1  504/38/1  444/39/1  443/40/1 
f  504/37/1  505/38/1  445/39/1  444/40/1 
f  505/37/1  506/38/1  446/39/1  445/40/1 
f  506/37/1  507/38/1  447/39/1  446/40/1 
f  507/37/1  508/38/1  448/39/1  447/40/1 
f  508/37/1  509/38/1  449/39/1  448/40/1 
f  509/41/1  510/42/1  450/43/1  449/44/1 
f  510/45/1  511/46/1  451/47/1  450/48/1 
f  511/49/1  512/50/1  452/51/1  451/52/1 
f  563/37/1  564/38/1  504/39/1  503/40/1 
f  564/37/1  565/38/1  505/39/1  504/40/1 
f  565/37/1  566/38/1  506/39/1  505/40/1 
f  566/37/1  567/38/1  507/39/1  506/40/1 
f  567/37/1  568/38/1  508/39/1  507/40/1 
f  568/37/1  569/38/1  509/39/1  508/40/1 
f  569/41/1  570/42/1  510/43/1  509/44/1 
f  570/45/1  571/46/1  511/47/1  510/48/1 
f  571/49/1  572/50/1  512/51/1  511/52/1 
f  623/37/1  624/38/1  564/39/1  563/40/1 
f  624/37/1  625/38/1  565/39/1  564/40/1 
f  625/37/1  626/38/1  566/39/1  565/40/1 
f  626/37/1  627/38/1  567/39/1  566/40/1 
f  627/37/1  628/38/1  568/39/1  567/40/1 
f  628/37/1  629/38/1  569/39/1  568/40/1 
f  629/41/1  630/42/1  570/43/1  569/44/1 
f  630/45/1  631/46/1  571/47/1  570/48/1 
f  631/49/1  632/50/1  572/51/1  571/52/1 
f  683/37/1  684/38/1  624/39/1  623/40/1 
f  684/37/1  685/38/1  625/39/1  624/40/1 
f  685/37/1  686/38/1  626/39/1  625/40/1 
f  686/37/1  687/38/1  627/39/1  626/40/1 
f  687/37/1  688/38/1  628/39/1  627/40/1 
f  688/37/1  689/38/1  629/39/1  628/40/1 
f  689/41/1  690/42/1  630/43/1  629/44/1 
f  690/45/1  691/46/1  631/47/1  630/48/1 
f  691/49/1  692/50/1  632/51/1  631/52/1 
f  742/37/1  743/38/1  683/39/1  682/40/1 
f  743/37/1  744/38/1  684/39/1  683/40/1 
f  744/37/1  745/38/1  685/39/1  684/40/1 
f  745/37/1  746/38/1  686/39/1  685/40/1 
f  746/37/1  747/38/1  687/39/1  686/40/1 
f  747/37/1  748/38/1  688/39/1  687/40/1 
f  748/37/1  749/38/1  689/39/1  688/40/1 
f  749/41/1  750/42/1  690/43/1  689/44/1 
f  750/45/1  751/46/1  691/47/1  690/48/1 
f  751/49/1  752/50/1  692/51/1  691/52/1 
f  802/37/1  803/38/1  743/39/1  742/40/1 
f  803/96/1  804/97/1  744/98/1  743/99/1 
f  804/100/1  805/101/1  745/102/1  744/103/1 
f  805/104/1  806/105/1  746/106/1  745/107/1 
f  806/96/1  807/97/1  747/98/1  746/99/1 
f  807/100/1  808/101/1  748/102/1  747/103/1 
f  808/96/1  809/97/1  749/98/1  748/99/1 
f  809/100/1  810/101/1  750/102/1  749/103/1 
f  810/96/1  811/97/1  751/98/1  750/99/1 
f  811/100/1  812/101/1  752/102/1  751/103/1 
f  906/108/1  907/109/1  804/110/1  803/111/1 
f  907/112/1  908/113/1  805/114/1  804/115/1 
f  908/116/1  909/117/1  806/118/1  805/119/1 
f  909/108/1  910/109/1  807/110/1  806/111/1 
f  910/112/1  911/113/1  808/114/1  807/115/1 
f  911/108/1  912/109/1  809/110/1  808/111/1 
f  912/112/1  913/113/1  810/114/1  809/115/1 
f  913/108/1  914/109/1  811/110/1  810/111/1 
f  914/112/1  915/113/1  812/114/1  811/115/1 
g mesh_[00]_[04]
f  348/77/1  349/78/1  350/79/1  351/40/1 
f  349/80/1  352/81/1  353/82/1  350/83/1 
f  352/77/1  354/78/1  355/79/1  353/40/1 
f  354/80/1  356/81/1  357/82/1  355/83/1 
f  356/77/1  358/78/1  359/79/1  357/40/1 
f  358/80/1  360/81/1  361/82/1  359/83/1 
f  360/77/1  362/78/1  363/79/1  361/40/1 
f  362/80/1  364/81/1  365/82/1  363/83/1 
f  364/77/1  366/78/1  367/79/1  365/40/1 
f  366/80/1  368/81/1  369/82/1  367/83/1 
f  368/77/1  370/78/1  371/79/1  369/40/1 
f  370/80/1  372/81/1  373/82/1  371/83/1 
f  372/77/1  374/78/1  375/79/1  373/40/1 
f  374/80/1  376/81/1  377/82/1  375/83/1 
f  376/77/1  378/78/1  379/79/1  377/40/1 
f  378/80/1  380/81/1  381/82/1  379/83/1 
f  380/77/1  382/78/1  383/79/1  381/40/1 
f  382/80/1  384/81/1  385/82/1  383/83/1 
f  384/77/1  386/78/1  387/79/1  385/40/1 
f  386/80/1  388/81/1  389/82/1  387/83/1 
f  388/77/1  390/78/1  391/79/1  389/40/1 
f  390/80/1  392/81/1  393/82/1  391/83/1 
f  392/77/1  394/78/1  395/79/1  393/40/1 
f  394/80/1  396/81/1  397/82/1  395/83/1 
f  396/77/1  398/78/1  399/79/1  397/40/1 
f  398/80/1  400/81/1  401/82/1  399/83/1 
f  400/77/1  402/78/1  403/79/1  401/40/1 
f  402/80/1  404/81/1  405/82/1  403/83/1 
f  404/77/1  406/78/1  407/79/1  405/40/1 
f  406/80/1  408/81/1  409/82/1  407/83/1 
f  408/77/1  410/78/1  411/79/1  409/40/1 
f  410/80/1  412/81/1  413/82/1  411/83/1 
f  412/77/1  414/78/1  415/79/1  413/40/1 
f  414/80/1  416/81/1  417/82/1  415/83/1 
f  416/77/1  418/78/1  419/79/1  417/40/1 
f  418/80/1  420/81/1  421/82/1  419/83/1 
f  420/77/1  422/78/1  423/79/1  421/40/1 
f  422/80/1  424/81/1  425/82/1  423/83/1 
f  424/77/1  426/78/1  427/79/1  425/40/1 
f  426/80/1  428/81/1  429/82/1  427/83/1 
f  428/77/1  430/78/1  431/79/1  429/40/1 
f  430/80/1  432/81/1  433/82/1  431/83/1 
f  432/77/1  434/78/1  435/79/1  433/40/1 
f  434/80/1  436/81/1  437/82/1  435/83/1 
f  436/77/1  438/78/1  439/79/1  437/40/1 
f  438/80/1  440/81/1  441/82/1  439/83/1 
f  455/88/1  456/89/1  349/90/1  348/91/1 
f  456/92/1  457/93/1  352/94/1  349/95/1 
f  457/88/1  458/89/1  354/90/1  352/91/1 
f  458/92/1  459/93/1  356/94/1  354/95/1 
f  459/88/1  460/89/1  358/90/1  356/91/1 
f  460/92/1  461/93/1  360/94/1  358/95/1 
f  461/88/1  462/89/1  362/90/1  360/91/1 
f  462/92/1  463/93/1  364/94/1  362/95/1 
f  463/88/1  464/89/1  366/90/1  364/91/1 
f  464/92/1  465/93/1  368/94/1  366/95/1 
f  465/88/1  466/89/1  370/90/1  368/91/1 
f  466/92/1  467/93/1  372/94/1  370/95/1 
f  467/88/1  468/89/1  374/90/1  372/91/1 
f  468/92/1  469/93/1  376/94/1  374/95/1 
f  469/88/1  470/89/1  378/90/1  376/91/1 
f  470/92/1  471/93/1  380/94/1  378/95/1 
f  471/88/1  472/89/1  382/90/1  380/91/1 
f  472/92/1  473/93/1  384/94/1  382/95/1 
f  473/88/1  474/89/1  386/90/1  384/91/1 
f  474/92/1  475/93/1  388/94/1  386/95/1 
f  475/88/1  476/89/1  390/90/1  388/91/1 
f  476/92/1  477/93/1  392/94/1  390/95/1 
f  477/88/1  478/89/1  394/90/1  392/91/1 
f  478/92/1  479/93/1  396/94/1  394/95/1 
f  479/88/1  480/89/1  398/90/1  396/91/1 
f  480/92/1  481/93/1  400/94/1  398/95/1 
f  481/88/1  482/89/1  402/90/1  400/91/1 
f  482/92/1  483/93/1  404/94/1  402/95/1 
f  483/88/1  484/89/1  406/90/1  404/91/1 
f  484/92/1  485/93/1  408/94/1  406/95/1 
f  485/88/1  486/89/1  410/90/1  408/91/1 
f  486/92/1  487/93/1  412/94/1  410/95/1 
f  487/88/1  488/89/1  414/90/1  412/91/1 
f  488/92/1  489/93/1  416/94/1  414/95/1 
f  489/88/1  490/89/1  418/90/1  416/91/1 
f  490/92/1  491/93/1  420/94/1  418/95/1 
f  491/88/1  492/89/1  422/90/1  420/91/1 
f  492/92/1  493/93/1  424/94/1  422/95/1 
f  493/88/1  494/89/1  426/90/1  424/91/1 
f  494/92/1  495/93/1  428/94/1  426/95/1 
f  495/88/1  496/89/1  430/90/1  428/91/1 
f  496/92/1  497/93/1  432/94/1  430/95/1 
f  497/88/1  498/89/1  434/90/1  432/91/1 
f  498/92/1  499/93/1  436/94/1  434/95/1 
f  499/88/1  500/89/1  438/90/1  436/91/1 
f  500/92/1  501/93/1  440/94/1  438/95/1 
f  515/77/1  516/78/1  456/79/1  455/40/1 
f  516/80/1  517/81/1  457/82/1  456/83/1 
f  517/77/1  518/78/1  458/79/1  457/40/1 
f  518/80/1  519/81/1  459/82/1  458/83/1 
f  519/77/1  520/78/1  460/79/1  459/40/1 
f  520/80/1  521/81/1  461/82/1  460/83/1 
f  521/77/1  522/78/1  462/79/1  461/40/1 
f  522/80/1  523/81/1  463/82/1  462/83/1 
f  523/77/1  524/78/1  464/79/1  463/40/1 
f  524/80/1  525/81/1  465/82/1  464/83/1 
f  525/77/1  526/78/1  466/79/1  465/40/1 
f  526/80/1  527/81/1  467/82/1  466/83/1 
f  527/77/1  528/78/1  468/79/1  467/40/1 
f  528/80/1  529/81/1  469/82/1  468/83/1 
f  529/77/1  530/78/1  470/79/1  469/40/1 
f  530/80/1  531/81/1  471/82/1  470/83/1 
f  531/77/1  532/78/1  472/79/1  471/40/1 
f  532/80/1  533/81/1  473/82/1  472/83/1 
f  533/77/1  534/78/1  474/79/1  473/40/1 
f  534/80/1  535/81/1  475/82/1  474/83/1 
f  535/77/1  536/78/1  476/79/1  475/40/1 
f  536/80/1  537/81/1  477/82/1  476/83/1 
f  537/77/1  538/78/1  478/79/1  477/40/1 
f  538/80/1  539/81/1  479/82/1  478/83/1 
f  539/77/1  540/78/1  480/79/1  479/40/1 
f  540/80/1  541/81/1  481/82/1  480/83/1 
f  541/77/1  542/78/1  482/79/1  481/40/1 
f  542/80/1  543/81/1  483/82/1  482/83/1 
f  543/77/1  544/78/1  484/79/1  483/40/1 
f  544/80/1  545/81/1  485/82/1  484/83/1 
f  545/77/1  546/78/1  486/79/1  485/40/1 
f  546/80/1  547/81/1  487/82/1  486/83/1 
f  547/77/1  548/78/1  488/79/1  487/40/1 
f  548/80/1  549/81/1  489/82/1  488/83/1 
f  549/77/1  550/78/1  490/79/1  489/40/1 
f  550/80/1  551/81/1  491/82/1  490/83/1 
f  551/77/1  552/78/1  492/79/1  491/40/1 
f  552/80/1  553/81/1  493/82/1  492/83/1 
f  553/77/1  554/78/1  494/79/1  493/40/1 
f  554/80/1  555/81/1  495/82/1  494/83/1 
f  555/77/1  556/78/1  496/79/1  495/40/1 
f  556/80/1  557/81/1  497/82/1  496/83/1 
f  557/77/1  558/78/1  498/79/1  497/40/1 
f  558/80/1  559/81/1  499/82/1  498/83/1 
f  559/77/1  560/78/1  500/79/1  499/40/1 
f  560/80/1  561/81/1  501/82/1  500/83/1 
f  575/88/1  576/89/1  516/90/1  515/91/1 
f  576/92/1  577/93/1  517/94/1  516/95/1 
f  577/88/1  578/89/1  518/90/1  517/91/1 
f  578/92/1  579/93/1  519/94/1  518/95/1 
f  579/88/1  580/89/1  520/90/1  519/91/1 
f  580/92/1  581/93/1  521/94/1  520/95/1 
f  581/88/1  582/89/1  522/90/1  521/91/1 
f  582/92/1  583/93/1  523/94/1  522/95/1 
f  583/88/1  584/89/1  524/90/1  523/91/1 
f  584/92/1  585/93/1  525/94/1  524/95/1 
f  585/88/1  586/89/1  526/90/1  525/91/1 
f  586/92/1  587/93/1  527/94/1  526/95/1 
f  587/88/1  588/89/1  528/90/1  527/91/1 
f  588/92/1  589/93/1  529/94/1  528/95/1 
f  589/88/1  590/89/1  530/90/1  529/91/1 
f  590/92/1  591/93/1  531/94/1  530/95/1 
f  591/88/1  592/89/1  532/90/1  531/91/1 
f  592/92/1  593/93/1  533/94/1  532/95/1 
f  593/88/1  594/89/1  534/90/1  533/91/1 
f  594/92/1  595/93/1  535/94/1  534/95/1 
f  595/88/1  596/89/1  536/90/1  535/91/1 
f  596/92/1  597/93/1  537/94/1  536/95/1 
f  597/88/1  598/89/1  538/90/1  537/91/1 
f  598/92/1  599/93/1  539/94/1  538/95/1 
f  599/88/1  600/89/1  540/90/1  539/91/1 
f  600/92/1  601/93/1  541/94/1  540/95/1 
f  601/88/1  602/89/1  542/90/1  541/91/1 
f  602/92/1  603/93/1  543/94/1  542/95/1 
f  603/88/1  604/89/1  544/90/1  543/91/1 
f  604/92/1  605/93/1  545/94/1  544/95/1 
f  605/88/1  606/89/1  546/90/1  545/91/1 
f  606/92/1  607/93/1  547/94/1  546/95/1 
f  607/88/1  608/89/1  548/90/1  547/91/1 
f  608/92/1  609/93/1  549/94/1  548/95/1 
f  609/88/1  610/89/1  550/90/1  549/91/1 
f  610/92/1  611/93/1  551/94/1  550/95/1 
f  611/88/1  612/89/1  552/90/1  551/91/1 
f  612/92/1  613/93/1  553/94/1  552/95/1 
f  613/88/1  614/89/1  554/90/1  553/91/1 
f  614/92/1  615/93/1  555/94/1  554/95/1 
f  615/88/1  616/89/1  556/90/1  555/91/1 
f  616/92/1  617/93/1  557/94/1  556/95/1 
f  617/88/1  618/89/1  558/90/1  557/91/1 
f  618/92/1  619/93/1  559/94/1  558/95/1 
f  619/88/1  620/89/1  560/90/1  559/91/1 
f  620/92/1  621/93/1  561/94/1  560/95/1 
f  635/77/1  636/78/1  576/79/1  575/40/1 
f  636/80/1  637/81/1  577/82/1  576/83/1 
f  637/77/1  638/78/1  578/79/1  577/40/1 
f  638/80/1  639/81/1  579/82/1  578/83/1 
f  639/77/1  640/78/1  580/79/1  579/40/1 
f  640/80/1  641/81/1  581/82/1  580/83/1 
f  641/77/1  642/78/1  582/79/1  581/40/1 
f  642/80/1  643/81/1  583/82/1  582/83/1 
f  643/77/1  644/78/1  584/79/1  583/40/1 
f  644/80/1  645/81/1  585/82/1  584/83/1 
f  645/77/1  646/78/1  586/79/1  585/40/1 
f  646/80/1  647/81/1  587/82/1  586/83/1 
f  647/77/1  648/78/1  588/79/1  587/40/1 
f  648/80/1  649/81/1  589/82/1  588/83/1 
f  649/77/1  650/78/1  590/79/1  589/40/1 
f  650/80/1  651/81/1  591/82/1  590/83/1 
f  651/77/1  652/78/1  592/79/1  591/40/1 
f  652/80/1  653/81/1  593/82/1  592/83/1 
f  653/77/1  654/78/1  594/79/1  593/40/1 
f  654/80/1  655/81/1  595/82/1  594/83/1 
f  655/77/1  656/78/1  596/79/1  595/40/1 
f  656/80/1  657/81/1  597/82/1  596/83/1 
f  657/77/1  658/78/1  598/79/1  597/40/1 
f  658/80/1  659/81/1  599/82/1  598/83/1 
f  659/77/1  660/78/1  600/79/1  599/40/1 
f  660/80/1  661/81/1  601/82/1  600/83/1 
f  661/77/1  662/78/1  602/79/1  601/40/1 
f  662/80/1  663/81/1  603/82/1  602/83/1 
f  663/77/1  664/78/1  604/79/1  603/40/1 
f  664/80/1  665/81/1  605/82/1  604/83/1 
f  665/77/1  666/78/1  606/79/1  605/40/1 
f  666/80/1  667/81/1  607/82/1  606/83/1 
f  667/77/1  668/78/1  608/79/1  607/40/1 
f  668/80/1  669/81/1  609/82/1  608/83/1 
f  669/77/1  670/78/1  610/79/1  609/40/1 
f  670/80/1  671/81/1  611/82/1  610/83/1 
f  671/77/1  672/78/1  612/79/1  611/40/1 
f  672/80/1  673/81/1  613/82/1  612/83/1 
f  673/77/1  674/78/1  614/79/1  613/40/1 
f  674/80/1  675/81/1  615/82/1  614/83/1 
f  675/77/1  676/78/1  616/79/1  615/40/1 
f  676/80/1  677/81/1  617/82/1  616/83/1 
f  677/77/1  678/78/1  618/79/1  617/40/1 
f  678/80/1  679/81/1  619/82/1  618/83/1 
f  679/77/1  680/78/1  620/79/1  619/40/1 
f  680/80/1  681/81/1  621/82/1  620/83/1 
f  695/88/1  696/89/1  636/90/1  635/91/1 
f  696/92/1  697/93/1  637/94/1  636/95/1 
f  697/88/1  698/89/1  638/90/1  637/91/1 
f  698/92/1  699/93/1  639/94/1  638/95/1 
f  699/88/1  700/89/1  640/90/1  639/91/1 
f  700/92/1  701/93/1  641/94/1  640/95/1 
f  701/88/1  702/89/1  642/90/1  641/91/1 
f  702/92/1  703/93/1  643/94/1  642/95/1 
f  703/88/1  704/89/1  644/90/1  643/91/1 
f  704/92/1  705/93/1  645/94/1  644/95/1 
f  705/88/1  706/89/1  646/90/1  645/91/1 
f  706/92/1  707/93/1  647/94/1  646/95/1 
f  707/88/1  708/89/1  648/90/1  647/91/1 
f  708/92/1  709/93/1  649/94/1  648/95/1 
f  709/88/1  710/89/1  650/90/1  649/91/1 
f  710/92/1  711/93/1  651/94/1  650/95/1 
f  711/88/1  712/89/1  652/90/1  651/91/1 
f  712/92/1  713/93/1  653/94/1  652/95/1 
f  713/88/1  714/89/1  654/90/1  653/91/1 
f  714/92/1  715/93/1  655/94/1  654/95/1 
f  715/88/1  716/89/1  656/90/1  655/91/1 
f  716/92/1  717/93/1  657/94/1  656/95/1 
f  717/88/1  718/89/1  658/90/1  657/91/1 
f  718/92/1  719/93/1  659/94/1  658/95/1 
f  719/88/1  720/89/1  660/90/1  659/91/1 
f  720/92/1  721/93/1  661/94/1  660/95/1 
f  721/88/1  722/89/1  662/90/1  661/91/1 
f  722/92/1  723/93/1  663/94/1  662/95/1 
f  723/88/1  724/89/1  664/90/1  663/91/1 
f  724/92/1  725/93/1  665/94/1  664/95/1 
f  725/88/1  726/89/1  666/90/1  665/91/1 
f  726/92/1  727/93/1  667/94/1  666/95/1 
f  727/88/1  728/89/1  668/90/1  667/91/1 
f  728/92/1  729/93/1  669/94/1  668/95/1 
f  729/88/1  730/89/1  670/90/1  669/91/1 
f  730/92/1  731/93/1  671/94/1  670/95/1 
f  731/88/1  732/89/1  672/90/1  671/91/1 
f  732/92/1  733/93/1  673/94/1  672/95/1 
f  733/88/1  734/89/1  674/90/1  673/91/1 
f  734/92/1  735/93/1  675/94/1  674/95/1 
f  735/88/1  736/89/1  676/90/1  675/91/1 
f  736/92/1  737/93/1  677/94/1  676/95/1 
f  737/88/1  738/89/1  678/90/1  677/91/1 
f  738/92/1  739/93/1  679/94/1  678/95/1 
f  739/88/1  740/89/1  680/90/1  679/91/1 
f  740/92/1  741/93/1  681/94/1  680/95/1 
f  755/77/1  756/78/1  696/79/1  695/40/1 
f  756/80/1  757/81/1  697/82/1  696/83/1 
f  757/77/1  758/78/1  698/79/1  697/40/1 
f  758/80/1  759/81/1  699/82/1  698/83/1 
f  759/77/1  760/78/1  700/79/1  699/40/1 
f  760/80/1  761/81/1  701/82/1  700/83/1 
f  761/77/1  762/78/1  702/79/1  701/40/1 
f  762/80/1  763/81/1  703/82/1  702/83/1 
f  763/77/1  764/78/1  704/79/1  703/40/1 
f  764/80/1  765/81/1  705/82/1  704/83/1 
f  765/77/1  766/78/1  706/79/1  705/40/1 
f  766/80/1  767/81/1  707/82/1  706/83/1 
f  767/77/1  768/78/1  708/79/1  707/40/1 
f  768/80/1  769/81/1  709/82/1  708/83/1 
f  769/77/1  770/78/1  710/79/1  709/40/1 
f  770/80/1  771/81/1  711/82/1  710/83/1 
f  771/77/1  772/78/1  712/79/1  711/40/1 
f  772/80/1  773/81/1  713/82/1  712/83/1 
f  773/77/1  774/78/1  714/79/1  713/40/1 
f  774/80/1  775/81/1  715/82/1  714/83/1 
f  775/77/1  776/78/1  716/79/1  715/40/1 
f  776/80/1  777/81/1  717/82/1  716/83/1 
f  777/77/1  778/78/1  718/79/1  717/40/1 
f  778/80/1  779/81/1  719/82/1  718/83/1 
f  779/77/1  780/78/1  720/79/1  719/40/1 
f  780/80/1  781/81/1  721/82/1  720/83/1 
f  781/77/1  782/78/1  722/79/1  721/40/1 
f  782/80/1  783/81/1  723/82/1  722/83/1 
f  783/77/1  784/78/1  724/79/1  723/40/1 
f  784/80/1  785/81/1  725/82/1  724/83/1 
f  785/77/1  786/78/1  726/79/1  725/40/1 
f  786/80/1  787/81/1  727/82/1  726/83/1 
f  787/77/1  788/78/1  728/79/1  727/40/1 
f  788/80/1  789/81/1  729/82/1  728/83/1 
f  789/77/1  790/78/1  730/79/1  729/40/1 
f  790/80/1  791/81/1  731/82/1  730/83/1 
f  791/77/1  792/78/1  732/79/1  731/40/1 
f  792/80/1  793/81/1  733/82/1  732/83/1 
f  793/77/1  794/78/1  734/79/1  733/40/1 
f  794/80/1  795/81/1  735/82/1  734/83/1 
f  795/77/1  796/78/1  736/79/1  735/40/1 
f  796/80/1  797/81/1  737/82/1  736/83/1 
f  797/77/1  798/78/1  738/79/1  737/40/1 
f  798/80/1  799/81/1  739/82/1  738/83/1 
f  799/77/1  800/78/1  740/79/1  739/40/1 
f  800/80/1  801/81/1  741/82/1  740/83/1 
g mesh_[01]_[04]
f  916/120/1  351/121/1  917/79/1  918/40/1 
f  919/122/1  920/123/1  921/124/1  922/125/1 
f  920/126/1  923/127/1  924/128/1  921/129/1 
f  923/122/1  925/123/1  926/124/1  924/125/1 
f  925/126/1  927/127/1  928/128/1  926/129/1 
f  927/122/1  929/123/1  930/124/1  928/125/1 
f  929/126/1  931/127/1  932/128/1  930/129/1 
f  931/122/1  933/123/1  934/124/1  932/125/1 
f  933/126/1  935/127/1  936/128/1  934/129/1 
f  935/122/1  937/123/1  938/124/1  936/125/1 
f  937/126/1  939/127/1  940/128/1  938/129/1 
f  939/122/1  941/123/1  942/124/1  940/125/1 
f  941/126/1  943/127/1  944/128/1  942/129/1 
f  943/122/1  945/123/1  946/124/1  944/125/1 
f  945/126/1  947/127/1  948/128/1  946/129/1 
f  947/122/1  949/123/1  950/124/1  948/125/1 
f  949/126/1  951/127/1  952/128/1  950/129/1 
f  951/122/1  953/123/1  954/124/1  952/125/1 
f  953/126/1  955/127/1  956/128/1  954/129/1 
f  955/122/1  957/123/1  958/124/1  956/125/1 
f  957/126/1  959/127/1  960/128/1  958/129/1 
f  959/122/1  961/123/1  962/124/1  960/125/1 
f  961/126/1  963/127/1  964/128/1  962/129/1 
f  963/122/1  965/123/1  966/124/1  964/125/1 
f  965/126/1  967/127/1  968/128/1  966/129/1 
f  967/122/1  969/123/1  970/124/1  968/125/1 
f  969/126/1  971/127/1  972/128/1  970/129/1 
f  971/122/1  973/123/1  974/124/1  972/125/1 
f  973/126/1  975/127/1  976/128/1  974/129/1 
f  975/122/1  977/123/1  978/124/1  976/125/1 
f  977/126/1  979/127/1  980/128/1  978/129/1 
f  979/122/1  981/123/1  982/124/1  980/125/1 
f  981/126/1  983/127/1  984/128/1  982/129/1 
f  983/122/1  985/123/1  986/124/1  984/125/1 
f  985/126/1  987/127/1  988/128/1  986/129/1 
f  987/122/1  989/123/1  990/124/1  988/125/1 
f  989/126/1  991/127/1  992/128/1  990/129/1 
f  991/122/1  993/123/1  994/124/1  992/125/1 
f  993/126/1  995/127/1  996/128/1  994/129/1 
f  995/122/1  997/123/1  998/124/1  996/125/1 
f  997/126/1  999/127/1  1000/128/1  998/129/1 
f  999/122/1  1001/123/1  1002/124/1  1000/125/1 
f  1001/126/1  1003/127/1  1004/128/1  1002/129/1 
f  1003/122/1  1005/123/1  1006/124/1  1004/125/1 
f  1005/126/1  1007/127/1  1008/128/1  1006/129/1 
f  1007/122/1  1009/123/1  1010/124/1  1008/125/1 
f  1009/126/1  1011/127/1  1012/128/1  1010/129/1 
f  1011/120/1  1013/121/1  1014/79/1  1012/40/1 
f  1015/92/1  348/93/1  351/94/1  916/95/1 
f  1016/92/1  1017/93/1  1013/94/1  1011/95/1 
f  1018/92/1  455/93/1  348/94/1  1015/95/1 
f  1019/92/1  1020/93/1  1017/94/1  1016/95/1 
f  1021/92/1  515/93/1  455/94/1  1018/95/1 
f  1032/92/1  1033/93/1  1020/94/1  1019/95/1 
f  1034/92/1  575/93/1  515/94/1  1021/95/1 
f  1040/92/1  1041/93/1  1033/94/1  1032/95/1 
f  1042/92/1  635/93/1  575/94/1  1034/95/1 
f  1048/92/1  1049/93/1  1041/94/1  1040/95/1 
f  1050/92/1  695/93/1  635/94/1  1042/95/1 
f  1064/92/1  1065/93/1  1049/94/1  1048/95/1 
f  1066/92/1  755/93/1  695/94/1  1050/95/1 
f  1067/92/1  1068/93/1  1065/94/1  1064/95/1 
g mesh_[01]_[01]
f  1022/130/1  1023/131/1  1024/132/1  1025/40/1 
f  1023/133/1  1026/134/1  1027/79/1  1024/135/1 
f  1026/136/1  1028/137/1  1029/138/1  1027/83/1 
f  1028/139/1  1030/140/1  1031/82/1  1029/141/1 
f  1035/130/1  1036/131/1  1023/132/1  1022/40/1 
f  1036/133/1  1037/134/1  1026/79/1  1023/135/1 
f  1037/136/1  1038/137/1  1028/138/1  1026/83/1 
f  1038/139/1  1039/140/1  1030/82/1  1028/141/1 
f  1043/77/1  1044/142/1  1036/143/1  1035/144/1 
f  1044/145/1  1045/78/1  1037/146/1  1036/147/1 
f  1045/80/1  1046/148/1  1038/149/1  1037/150/1 
f  1046/151/1  1047/81/1  1039/152/1  1038/153/1 
f  1059/122/1  1060/154/1  1044/155/1  1043/91/1 
f  1060/156/1  1061/123/1  1045/90/1  1044/157/1 
f  1061/126/1  1062/158/1  1046/159/1  1045/95/1 
f  1062/160/1  1063/127/1  1047/94/1  1046/161/1 
f  840/88/1  842/162/1  1060/166/1  1059/167/1 
f  842/163/1  844/89/1  1061/168/1  1060/169/1 
f  844/92/1  846/164/1  1062/170/1  1061/171/1 
f  846/165/1  848/93/1  1063/172/1  1062/173/1 
g mesh_[01]_[02]
f  694/77/1  1051/142/1  1052/132/1  634/40/1 
f  1051/145/1  1053/78/1  1054/79/1  1052/135/1 
f  1053/80/1  1055/148/1  1056/138/1  1054/83/1 
f  1055/151/1  1057/81/1  1058/82/1  1056/141/1 
f  754/88/1  816/162/1  1051/155/1  694/91/1 
f  816/163/1  818/89/1  1053/90/1  1051/157/1 
f  818/92/1  820/164/1  1055/159/1  1053/95/1 
f  820/165/1  822/93/1  1057/94/1  1055/161/1 
g mesh_[01]_[00]
f  813/57/1  814/58/1  1069/174/1  1070/175/1 
f  905/57/1  906/58/1  1071/174/1  1072/175/1 
g mesh_[03]_[00]
f  229/176/1  230/177/1  173/178/1  172/179/1 
f  230/176/1  231/177/1  174/178/1  173/179/1 
f  231/176/1  232/177/1  175/178/1  174/179/1 
f  232/176/1  233/177/1  176/178/1  175/179/1 
f  233/176/1  234/177/1  177/178/1  176/179/1 
f  234/176/1  235/177/1  178/178/1  177/179/1 
f  235/176/1  236/177/1  179/178/1  178/179/1 
f  236/176/1  237/177/1  180/178/1  179/179/1 
f  237/176/1  238/177/1  181/178/1  180/179/1 
f  238/176/1  239/177/1  182/178/1  181/179/1 
f  239/176/1  240/177/1  183/178/1  182/179/1 
f  240/176/1  241/177/1  184/178/1  183/179/1 
f  241/176/1  242/177/1  185/178/1  184/179/1 
f  242/176/1  243/177/1  186/178/1  185/179/1 
f  243/176/1  244/177/1  187/178/1  186/179/1 
f  244/176/1  245/177/1  188/178/1  187/179/1 
f  245/176/1  246/177/1  189/178/1  188/179/1 
f  246/176/1  247/177/1  190/178/1  189/179/1 
f  247/176/1  248/177/1  191/178/1  190/179/1 
f  248/176/1  249/177/1  192/178/1  191/179/1 
f  249/176/1  250/177/1  193/178/1  192/179/1 
f  250/176/1  251/177/1  194/178/1  193/179/1 
f  251/176/1  252/177/1  195/178/1  194/179/1 
f  252/176/1  253/177/1  196/178/1  195/179/1 
f  253/176/1  254/177/1  197/178/1  196/179/1 
f  254/176/1  255/177/1  198/178/1  197/179/1 
f  255/176/1  256/177/1  199/178/1  198/179/1 
f  256/176/1  257/177/1  200/178/1  199/179/1 
f  257/176/1  258/177/1  201/178/1  200/179/1 
f  258/176/1  259/177/1  202/178/1  201/179/1 
f  259/176/1  260/177/1  203/178/1  202/179/1 
f  260/176/1  261/177/1  204/178/1  203/179/1 
f  261/176/1  262/177/1  205/178/1  204/179/1 
f  262/176/1  263/177/1  206/178/1  205/179/1 
f  263/176/1  264/177/1  207/178/1  206/179/1 
f  264/176/1  265/177/1  208/178/1  207/179/1 
f  265/176/1  266/177/1  209/178/1  208/179/1 
f  266/176/1  267/177/1  210/178/1  209/179/1 
f  267/176/1  268/177/1  211/178/1  210/179/1 
f  268/176/1  269/177/1  212/178/1  211/179/1 
f  269/176/1  270/177/1  213/178/1  212/179/1 
f  270/176/1  271/177/1  214/178/1  213/179/1 
f  271/176/1  272/177/1  215/178/1  214/179/1 
f  272/176/1  273/177/1  216/178/1  215/179/1 
f  273/176/1  274/177/1  217/178/1  216/179/1 
f  274/176/1  275/177/1  218/178/1  217/179/1 
f  275/176/1  276/177/1  219/178/1  218/179/1 
f  276/176/1  277/177/1  220/178/1  219/179/1 
f  288/176/1  289/177/1  230/178/1  229/179/1 
f  335/176/1  336/177/1  277/178/1  276/179/1 
f  346/176/1  347/177/1  289/178/1  288/179/1 
f  442/176/1  443/177/1  336/178/1  335/179/1 
f  453/176/1  454/177/1  347/178/1  346/179/1 
f  502/176/1  503/177/1  443/178/1  442/179/1 
f  513/176/1  514/177/1  454/178/1  453/179/1 
f  1022/176/1  1023/177/1  1024/178/1  1025/179/1 
f  1023/176/1  1026/177/1  1027/178/1  1024/179/1 
f  1026/176/1  1028/177/1  1029/178/1  1027/179/1 
f  1028/176/1  1030/177/1  1031/178/1  1029/179/1 
f  562/176/1  563/177/1  503/178/1  502/179/1 
f  573/176/1  574/177/1  514/178/1  513/179/1 
f  1035/176/1  1036/177/1  1023/178/1  1022/179/1 
f  1038/176/1  1039/177/1  1030/178/1  1028/179/1 
f  622/176/1  623/177/1  563/178/1  562/179/1 
f  633/176/1  634/177/1  574/178/1  573/179/1 
f  1043/176/1  1044/177/1  1036/178/1  1035/179/1 
f  1046/176/1  1047/177/1  1039/178/1  1038/179/1 
f  682/176/1  683/177/1  623/178/1  622/179/1 
f  693/176/1  694/177/1  634/178/1  633/179/1 
f  1059/176/1  1060/177/1  1044/178/1  1043/179/1 
f  1062/176/1  1063/177/1  1047/178/1  1046/179/1 
f  753/176/1  754/177/1  694/178/1  693/179/1 
f  840/176/1  842/177/1  1060/178/1  1059/179/1 
f  846/176/1  848/177/1  1063/178/1  1062/179/1 
f  813/176/1  814/177/1  754/178/1  753/179/1 
f  814/176/1  815/177/1  816/178/1  754/179/1 
f  815/176/1  817/177/1  818/178/1  816/179/1 
f  817/176/1  819/177/1  820/178/1  818/179/1 
f  819/176/1  821/177/1  822/178/1  820/179/1 
f  821/176/1  823/177/1  824/178/1  822/179/1 
f  823/176/1  825/177/1  826/178/1  824/179/1 
f  825/176/1  827/177/1  828/178/1  826/179/1 
f  827/176/1  829/177/1  830/178/1  828/179/1 
f  829/176/1  831/177/1  832/178/1  830/179/1 
f  831/176/1  833/177/1  834/178/1  832/179/1 
f  833/176/1  835/177/1  836/178/1  834/179/1 
f  835/176/1  837/177/1  838/178/1  836/179/1 
f  837/176/1  839/177/1  840/178/1  838/179/1 
f  839/176/1  841/177/1  842/178/1  840/179/1 
f  845/176/1  847/177/1  848/178/1  846/179/1 
f  847/176/1  849/177/1  850/178/1  848/179/1 
f  849/176/1  851/177/1  852/178/1  850/179/1 
f  851/176/1  853/177/1  854/178/1  852/179/1 
f  853/176/1  855/177/1  856/178/1  854/179/1 
f  855/176/1  857/177/1  858/178/1  856/179/1 
f  857/176/1  859/177/1  860/178/1  858/179/1 
f  859/176/1  861/177/1  862/178/1  860/179/1 
f  861/176/1  863/177/1  864/178/1  862/179/1 
f  863/176/1  865/177/1  866/178/1  864/179/1 
f  865/176/1  867/177/1  868/178/1  866/179/1 
f  867/176/1  869/177/1  870/178/1  868/179/1 
f  869/176/1  871/177/1  872/178/1  870/179/1 
f  871/176/1  873/177/1  874/178/1  872/179/1 
f  873/176/1  875/177/1  876/178/1  874/179/1 
f  875/176/1  877/177/1  878/178/1  876/179/1 
f  877/176/1  879/177/1  880/178/1  878/179/1 
f  879/176/1  881/177/1  882/178/1  880/179/1 
f  881/176/1  883/177/1  884/178/1  882/179/1 
f  883/176/1  885/177/1  886/178/1  884/179/1 
f  885/176/1  887/177/1  888/178/1  886/179/1 
f  887/176/1  889/177/1  890/178/1  888/179/1 
f  889/176/1  891/177/1  892/178/1  890/179/1 
f  891/176/1  893/177/1  894/178/1  892/179/1 
f  893/176/1  895/177/1  896/178/1  894/179/1 
f  895/176/1  897/177/1  898/178/1  896/179/1 
f  897/176/1  899/177/1  900/178/1  898/179/1 
f  899/176/1  901/177/1  902/178/1  900/179/1 
f  901/176/1  903/177/1  904/178/1  902/179/1 
f  903/176/1  905/177/1  802/178/1  904/179/1 
f  905/176/1  906/177/1  803/178/1  802/179/1 
f  906/176/1  907/177/1  804/178/1  803/179/1 
f  907/176/1  908/177/1  805/178/1  804/179/1 
f  908/176/1  909/177/1  806/178/1  805/179/1 
f  909/176/1  910/177/1  807/178/1  806/179/1 
f  910/176/1  911/177/1  808/178/1  807/179/1 
f  911/176/1  912/177/1  809/178/1  808/179/1 
f  912/176/1  913/177/1  810/178/1  809/179/1 
f  913/176/1  914/177/1  811/178/1  810/179/1 
f  914/176/1  915/177/1  812/178/1  811/179/1 
